{
	"code": "0",
	"data": {
		"recommendData": null,
		"searchData": {
			"doc": [
				{
					"id": 219485,
					"productInfo": {
						"address": "三里屯北路19号三里屯太古里南区1层(黄色网红墙对面)",
						"businessesDistrict": "三里屯",
						"categoryId": 2,
						"cityId": 1,
						"commentTags": null,
						"categorys": [
							"下午茶"
						],
						"discountDesc": null,
						"discountIconUrl": null,
						"distance": "",
						"highLigth": "北欧风的惬意网红甜品店",
						"hostName": "Crepe Restaurant 三里屯太古里南区",
						"id": 219485,
						"isHaveEquities": 0,
						"isInterested": null,
						"isJoinRedPacket": 0,
						"latitude": null,
						"linkUrl": null,
						"longitude": null,
						"packageDesc": null,
						"packageIconUrl": null,
						"hostSharePicUrl": "http://p.yhres.com/hostInfo/2018/05/02/1525263254567307.jpg-rq75h",
						"price": 45,
						"priceStr": "45元",
						"publicityWord": null,
						"recommendDesc": null,
						"recommendSubHead": null,
						"recommendTitle": null,
						"specialty": null,
						"tagArr": [],
						"tagArrDesc": [],
						"shareContent": "Crepe Restaurant 三里屯太古里南区",
						"vipEqsTag": ""
					},
					"productType": 3
				},
				{
					"id": 219484,
					"productInfo": {
						"address": "南三里屯路1号北京三里屯通盈中心洲际酒店2层",
						"businessesDistrict": "三里屯",
						"categoryId": 2,
						"cityId": 1,
						"commentTags": null,
						"categorys": [
							"下午茶"
						],
						"discountDesc": null,
						"discountIconUrl": null,
						"distance": "",
						"highLigth": "温馨与时代感并存的经典甜品店",
						"hostName": "DELI-cious-甜甜",
						"id": 219484,
						"isHaveEquities": 0,
						"isInterested": null,
						"isJoinRedPacket": 0,
						"latitude": null,
						"linkUrl": null,
						"longitude": null,
						"packageDesc": null,
						"packageIconUrl": null,
						"hostSharePicUrl": "http://p.yhres.com/hostInfo/2018/05/02/1525262599261035.jpg-rq75h",
						"price": 64,
						"priceStr": "64元",
						"publicityWord": null,
						"recommendDesc": null,
						"recommendSubHead": null,
						"recommendTitle": null,
						"specialty": null,
						"tagArr": [],
						"tagArrDesc": [],
						"shareContent": "DELI-cious-甜甜",
						"vipEqsTag": ""
					},
					"productType": 3
				},
				{
					"id": 219477,
					"productInfo": {
						"address": "北京坊廊房头条21号院5号楼101",
						"businessesDistrict": "前门",
						"categoryId": 2,
						"cityId": 1,
						"commentTags": null,
						"categorys": [
							"下午茶"
						],
						"discountDesc": null,
						"discountIconUrl": null,
						"distance": "",
						"highLigth": "昆虫学家的新大陆 极具美感的用餐空间",
						"hostName": "TIENSTIENS将将(前门店)",
						"id": 219477,
						"isHaveEquities": 0,
						"isInterested": null,
						"isJoinRedPacket": 0,
						"latitude": null,
						"linkUrl": null,
						"longitude": null,
						"packageDesc": null,
						"packageIconUrl": null,
						"hostSharePicUrl": "http://p.yhres.com/hostInfo/2018/04/29/1524995659411310.jpg-rq75h",
						"price": 76,
						"priceStr": "76元",
						"publicityWord": null,
						"recommendDesc": null,
						"recommendSubHead": null,
						"recommendTitle": null,
						"specialty": null,
						"tagArr": [],
						"tagArrDesc": [],
						"shareContent": "TIENSTIENS将将(前门店)",
						"vipEqsTag": ""
					},
					"productType": 3
				},
				{
					"id": 219445,
					"productInfo": {
						"address": "东直门南大街1号来福士B1-11B",
						"businessesDistrict": "东直门",
						"categoryId": 2,
						"cityId": 1,
						"commentTags": null,
						"categorys": [
							"下午茶"
						],
						"discountDesc": null,
						"discountIconUrl": null,
						"distance": "",
						"highLigth": "侵占少女心的的北欧风格咖啡店",
						"hostName": "Blanko法式甜品(来福士店)",
						"id": 219445,
						"isHaveEquities": 0,
						"isInterested": null,
						"isJoinRedPacket": 0,
						"latitude": null,
						"linkUrl": null,
						"longitude": null,
						"packageDesc": null,
						"packageIconUrl": null,
						"hostSharePicUrl": "http://p.yhres.com/hostInfo/2018/04/27/1524840991000971.jpg-rq75h",
						"price": 53,
						"priceStr": "53元",
						"publicityWord": null,
						"recommendDesc": null,
						"recommendSubHead": null,
						"recommendTitle": null,
						"specialty": null,
						"tagArr": [],
						"tagArrDesc": [],
						"shareContent": "Blanko法式甜品(来福士店)",
						"vipEqsTag": ""
					},
					"productType": 3
				},
				{
					"id": 219437,
					"productInfo": {
						"address": "双井街道百子湾路32号苹果社区北区1-7(今日美术馆向东300米、二十二院街艺术区东侧)",
						"businessesDistrict": "双井",
						"categoryId": 2,
						"cityId": 1,
						"commentTags": null,
						"categorys": [
							"下午茶"
						],
						"discountDesc": null,
						"discountIconUrl": null,
						"distance": "",
						"highLigth": "分分钟激发少女心的网红级甜品店",
						"hostName": "CHATUCHAK曼谷潮流甜品(双井店)",
						"id": 219437,
						"isHaveEquities": 0,
						"isInterested": null,
						"isJoinRedPacket": 0,
						"latitude": null,
						"linkUrl": null,
						"longitude": null,
						"packageDesc": null,
						"packageIconUrl": null,
						"hostSharePicUrl": "http://p.yhres.com/hostInfo/2018/04/27/1524836779266814.jpg-rq75h",
						"price": 43,
						"priceStr": "43元",
						"publicityWord": null,
						"recommendDesc": null,
						"recommendSubHead": null,
						"recommendTitle": null,
						"specialty": null,
						"tagArr": [],
						"tagArrDesc": [],
						"shareContent": "CHATUCHAK曼谷潮流甜品(双井店)",
						"vipEqsTag": ""
					},
					"productType": 3
				},
				{
					"id": 219313,
					"productInfo": {
						"address": "三里屯SOHO办公A座707",
						"businessesDistrict": "三里屯",
						"categoryId": 2,
						"cityId": 1,
						"commentTags": null,
						"categorys": [
							"下午茶"
						],
						"discountDesc": null,
						"discountIconUrl": null,
						"distance": "",
						"highLigth": "坚持做创意与美味并存的高颜值蛋糕",
						"hostName": "法蘭之吻",
						"id": 219313,
						"isHaveEquities": 0,
						"isInterested": null,
						"isJoinRedPacket": 0,
						"latitude": null,
						"linkUrl": null,
						"longitude": null,
						"packageDesc": null,
						"packageIconUrl": null,
						"hostSharePicUrl": "http://p.yhres.com/hostInfo/2018/04/18/1524041835264949.jpg-rq75h",
						"price": 258,
						"priceStr": "258元",
						"publicityWord": null,
						"recommendDesc": null,
						"recommendSubHead": null,
						"recommendTitle": null,
						"specialty": null,
						"tagArr": [],
						"tagArrDesc": [],
						"shareContent": "法蘭之吻",
						"vipEqsTag": ""
					},
					"productType": 3
				},
				{
					"id": 219103,
					"productInfo": {
						"address": "工人体育场北路三里屯太古里南区一层S9-18",
						"businessesDistrict": "三里屯",
						"categoryId": 2,
						"cityId": 1,
						"commentTags": null,
						"categorys": [
							"下午茶"
						],
						"discountDesc": null,
						"discountIconUrl": null,
						"distance": "",
						"highLigth": "来自韩国的网红冰淇淋 回头率超高",
						"hostName": "KISS THE TIRAMISU(三里屯店)",
						"id": 219103,
						"isHaveEquities": 0,
						"isInterested": null,
						"isJoinRedPacket": 0,
						"latitude": null,
						"linkUrl": null,
						"longitude": null,
						"packageDesc": null,
						"packageIconUrl": null,
						"hostSharePicUrl": "http://p.yhres.com/hostInfo/2018/02/01/1517426912393726.jpg-rq75h",
						"price": 35,
						"priceStr": "35元",
						"publicityWord": null,
						"recommendDesc": null,
						"recommendSubHead": null,
						"recommendTitle": null,
						"specialty": null,
						"tagArr": [],
						"tagArrDesc": [],
						"shareContent": "KISS THE TIRAMISU(三里屯店)",
						"vipEqsTag": ""
					},
					"productType": 3
				},
				{
					"id": 219098,
					"productInfo": {
						"address": "三里屯SOHO一号商场B1层110号",
						"businessesDistrict": "三里屯",
						"categoryId": 2,
						"cityId": 1,
						"commentTags": null,
						"categorys": [
							"下午茶"
						],
						"discountDesc": null,
						"discountIconUrl": null,
						"distance": "",
						"highLigth": "复古法式的精致空间 感受生活仪式感",
						"hostName": "绿季法式甜品",
						"id": 219098,
						"isHaveEquities": 0,
						"isInterested": null,
						"isJoinRedPacket": 0,
						"latitude": null,
						"linkUrl": null,
						"longitude": null,
						"packageDesc": null,
						"packageIconUrl": null,
						"hostSharePicUrl": "http://p.yhres.com/hostInfo/2018/02/01/1517422180447726.jpg-rq75h",
						"price": 106,
						"priceStr": "106元",
						"publicityWord": null,
						"recommendDesc": null,
						"recommendSubHead": null,
						"recommendTitle": null,
						"specialty": null,
						"tagArr": [],
						"tagArrDesc": [],
						"shareContent": "绿季法式甜品",
						"vipEqsTag": ""
					},
					"productType": 3
				},
				{
					"id": 219093,
					"productInfo": {
						"address": "三里屯太古里(那里花园对面，胶囊咖啡旁)",
						"businessesDistrict": "三里屯",
						"categoryId": 2,
						"cityId": 1,
						"commentTags": null,
						"categorys": [
							"下午茶"
						],
						"discountDesc": null,
						"discountIconUrl": null,
						"distance": "",
						"highLigth": "知名意大利本子品牌的跨界咖啡厅",
						"hostName": "MOLESKINE cafe",
						"id": 219093,
						"isHaveEquities": 0,
						"isInterested": null,
						"isJoinRedPacket": 0,
						"latitude": null,
						"linkUrl": null,
						"longitude": null,
						"packageDesc": null,
						"packageIconUrl": null,
						"hostSharePicUrl": "http://p.yhres.com/hostInfo/2018/02/01/1517418289726947.jpg-rq75h",
						"price": 65,
						"priceStr": "65元",
						"publicityWord": null,
						"recommendDesc": null,
						"recommendSubHead": null,
						"recommendTitle": null,
						"specialty": null,
						"tagArr": [],
						"tagArrDesc": [],
						"shareContent": "MOLESKINE cafe",
						"vipEqsTag": ""
					},
					"productType": 3
				},
				{
					"id": 219090,
					"productInfo": {
						"address": "秀水街1号建国门外外交公寓东门(和睦家医院旁边)",
						"businessesDistrict": "建外大街",
						"categoryId": 2,
						"cityId": 1,
						"commentTags": null,
						"categorys": [
							"下午茶"
						],
						"discountDesc": null,
						"discountIconUrl": null,
						"distance": "",
						"highLigth": "主打精致日式甜品 带来别样细腻",
						"hostName": "STRASBOURG 思特堡(建国门店)",
						"id": 219090,
						"isHaveEquities": 0,
						"isInterested": null,
						"isJoinRedPacket": 0,
						"latitude": null,
						"linkUrl": null,
						"longitude": null,
						"packageDesc": null,
						"packageIconUrl": null,
						"hostSharePicUrl": "http://p.yhres.com/hostInfo/2018/02/01/1517416071768059.png-rq75h",
						"price": 89,
						"priceStr": "89元",
						"publicityWord": null,
						"recommendDesc": null,
						"recommendSubHead": null,
						"recommendTitle": null,
						"specialty": null,
						"tagArr": [],
						"tagArrDesc": [],
						"shareContent": "STRASBOURG 思特堡(建国门店)",
						"vipEqsTag": ""
					},
					"productType": 3
				}
			],
			"isEnd": 0,
			"nextPage": 2,
			"page": 1,
			"pageSize": 10,
			"pid": "219485,219484,219477,219445,219437,219313,219103,219098,219093,219090",
			"totalRows": 186
		}
	},
	"detail": "",
	"message": "success"
}