{"code":"0","data":{"doc":[{"itemData":[{"address":"中成大厦","businessesDistrict":"五道口","categoryId":4,"cityId":1,"commentTags":null,"cuisineStyle":"美容/SPA","discountDesc":null,"discountIconUrl":null,"distance":"","highLigth":"优质植物精油的使用","hostName":"克丽缇娜(中成大厦店)","id":116621,"isHaveEquities":0,"isInterested":0,"isJoinRedPacket":0,"latitude":"39.986193","linkUrl":"yhouse://host/116621?categoryId=4","logoUrl":"http://p.yhres.com/hostInfo/2017/01/17/1484637350326324.jpg-ssq75","longitude":"116.31068","packageDesc":null,"packageIconUrl":null,"picUrl":"http://p.yhres.com/hostInfo/2017/01/13/1484300104260668.jpg-q75h","price":null,"priceStr":null,"publicityWord":"","recommendDesc":null,"recommendSubHead":null,"recommendTitle":null,"specialty":null,"tagArr":[],"tagArrDesc":null,"title":"克丽缇娜(中成大厦店)","vipEqsTag":""},{"address":"百子湾路甲12号大成国际中心1号楼2层","businessesDistrict":"大望路","categoryId":4,"cityId":1,"commentTags":null,"cuisineStyle":"美容/SPA","discountDesc":null,"discountIconUrl":null,"distance":"","highLigth":"优质植物精油的使用","hostName":"御汉堂美容美体中心(大成国际店)","id":116633,"isHaveEquities":0,"isInterested":0,"isJoinRedPacket":0,"latitude":"39.899903","linkUrl":"yhouse://host/116633?categoryId=4","logoUrl":"http://p.yhres.com/hostInfo/2017/01/17/1484637771534971.jpg-ssq75","longitude":"116.491989","packageDesc":null,"packageIconUrl":null,"picUrl":"http://p.yhres.com/hostInfo/2017/01/13/1484299802837040.jpg-q75h","price":null,"priceStr":null,"publicityWord":"","recommendDesc":null,"recommendSubHead":null,"recommendTitle":null,"specialty":null,"tagArr":[],"tagArrDesc":null,"title":"御汉堂美容美体中心(大成国际店)","vipEqsTag":""},{"address":"宏泰东二路望京远洋万和公馆","businessesDistrict":"望京","categoryId":4,"cityId":1,"commentTags":["效果赞"," 技师专业"," 服务热情"],"cuisineStyle":"美容/SPA","discountDesc":null,"discountIconUrl":null,"distance":"","highLigth":"进口高端仪器的使用","hostName":"cellyoung初氧(望京店)","id":116643,"isHaveEquities":0,"isInterested":0,"isJoinRedPacket":0,"latitude":"40.003024","linkUrl":"yhouse://host/116643?categoryId=4","logoUrl":"http://p.yhres.com/hostInfo/2017/01/17/1484637929331291.jpg-ssq75","longitude":"116.484158","packageDesc":null,"packageIconUrl":null,"picUrl":"http://p.yhres.com/hostInfo/2017/01/13/1484299368141382.jpg-q75h","price":null,"priceStr":null,"publicityWord":"","recommendDesc":null,"recommendSubHead":null,"recommendTitle":null,"specialty":null,"tagArr":[],"tagArrDesc":null,"title":"cellyoung初氧(望京店)","vipEqsTag":""},{"address":"四元桥方舟苑9号201","businessesDistrict":"望京","categoryId":4,"cityId":1,"commentTags":null,"cuisineStyle":"美容/SPA","discountDesc":null,"discountIconUrl":null,"distance":"","highLigth":"专业细腻的按摩手法","hostName":"圣馨康源(望京二店)","id":116644,"isHaveEquities":0,"isInterested":0,"isJoinRedPacket":0,"latitude":"39.977367700366","linkUrl":"yhouse://host/116644?categoryId=4","logoUrl":"http://p.yhres.com/hostInfo/2017/01/17/1484638017005705.jpg-ssq75","longitude":"116.46342936003","packageDesc":null,"packageIconUrl":null,"picUrl":"http://p.yhres.com/hostInfo/2017/01/13/1484299104442785.jpg-q75h","price":128,"priceStr":"人均: 128元","publicityWord":"","recommendDesc":null,"recommendSubHead":null,"recommendTitle":null,"specialty":null,"tagArr":[],"tagArrDesc":null,"title":"圣馨康源(望京二店)","vipEqsTag":""},{"address":"朝阳北路呼家楼北街甲6号大可铁板烧二楼天戈养生会所","businessesDistrict":"朝阳公园/团结湖","categoryId":4,"cityId":1,"commentTags":null,"cuisineStyle":"美容/SPA","discountDesc":null,"discountIconUrl":null,"distance":"","highLigth":"优质按摩精油的使用","hostName":"天戈养生会所","id":116645,"isHaveEquities":0,"isInterested":0,"isJoinRedPacket":0,"latitude":"39.922518726962","linkUrl":"yhouse://host/116645?categoryId=4","logoUrl":"http://p.yhres.com/hostInfo/2017/01/17/1484638157457719.jpg-ssq75","longitude":"116.46670952439","packageDesc":null,"packageIconUrl":null,"picUrl":"http://p.yhres.com/hostInfo/2017/01/13/1484298889763896.jpg-q75h","price":null,"priceStr":null,"publicityWord":"","recommendDesc":null,"recommendSubHead":null,"recommendTitle":null,"specialty":null,"tagArr":[],"tagArrDesc":null,"title":"天戈养生会所","vipEqsTag":""},{"address":"朝阳望京西路","businessesDistrict":"望京","categoryId":4,"cityId":1,"commentTags":null,"cuisineStyle":"美容/SPA","discountDesc":null,"discountIconUrl":null,"distance":"","highLigth":"特色主题房型的室内装修","hostName":"帝都高端主题spa","id":116647,"isHaveEquities":0,"isInterested":0,"isJoinRedPacket":0,"latitude":"40.005246","linkUrl":"yhouse://host/116647?categoryId=4","logoUrl":"","longitude":"116.457634","packageDesc":null,"packageIconUrl":null,"picUrl":"http://p.yhres.com/hostInfo/2017/01/10/1484048395951973.jpg-q75h","price":null,"priceStr":null,"publicityWord":"","recommendDesc":null,"recommendSubHead":null,"recommendTitle":null,"specialty":null,"tagArr":[],"tagArrDesc":null,"title":"帝都高端主题spa","vipEqsTag":""},{"address":"朝阳北路罗马嘉园53号楼203室","businessesDistrict":"十里堡","categoryId":4,"cityId":1,"commentTags":null,"cuisineStyle":"美容/SPA","discountDesc":null,"discountIconUrl":null,"distance":"","highLigth":"专业细腻的按摩手法","hostName":"拉奈美美容纤体SPA会所","id":116659,"isHaveEquities":0,"isInterested":0,"isJoinRedPacket":0,"latitude":"39.924709999994","linkUrl":"yhouse://host/116659?categoryId=4","logoUrl":"","longitude":"116.51242000024","packageDesc":null,"packageIconUrl":null,"picUrl":"http://p.yhres.com/hostInfo/2017/01/10/1484046335285538.jpg-q75h","price":null,"priceStr":null,"publicityWord":"","recommendDesc":null,"recommendSubHead":null,"recommendTitle":null,"specialty":null,"tagArr":[],"tagArrDesc":null,"title":"拉奈美美容纤体SPA会所","vipEqsTag":""},{"address":"建国路93号万达广场1号楼205","businessesDistrict":"大望路","categoryId":4,"cityId":1,"commentTags":null,"cuisineStyle":"美容/SPA","discountDesc":null,"discountIconUrl":null,"distance":"","highLigth":"纯正泰式按摩手法","hostName":"泰爱spa(北京店)","id":116666,"isHaveEquities":0,"isInterested":0,"isJoinRedPacket":0,"latitude":"39.911399","linkUrl":"yhouse://host/116666?categoryId=4","logoUrl":"http://p.yhres.com/hostInfo/2017/01/12/1484216051791566.jpg-ssq75","longitude":"116.47272","packageDesc":null,"packageIconUrl":null,"picUrl":"http://p.yhres.com/hostInfo/2017/01/10/1484038353875411.jpg-q75h","price":null,"priceStr":null,"publicityWord":"","recommendDesc":null,"recommendSubHead":null,"recommendTitle":null,"specialty":null,"tagArr":[],"tagArrDesc":null,"title":"泰爱spa(北京店)","vipEqsTag":""},{"address":"八里庄西里67号楼102","businessesDistrict":"大望路","categoryId":4,"cityId":1,"commentTags":null,"cuisineStyle":"美容/SPA","discountDesc":null,"discountIconUrl":null,"distance":"","highLigth":"精准的按摩手法","hostName":"克丽缇娜(八里庄店)","id":116667,"isHaveEquities":0,"isInterested":0,"isJoinRedPacket":0,"latitude":"39.912121395510","linkUrl":"yhouse://host/116667?categoryId=4","logoUrl":"","longitude":"116.49270172184","packageDesc":null,"packageIconUrl":null,"picUrl":"http://p.yhres.com/hostInfo/2017/01/10/1484037326702481.jpg-q75h","price":null,"priceStr":null,"publicityWord":"","recommendDesc":null,"recommendSubHead":null,"recommendTitle":null,"specialty":null,"tagArr":[],"tagArrDesc":null,"title":"克丽缇娜(八里庄店)","vipEqsTag":""},{"address":"东三环北路8号亮马河饭店3楼","businessesDistrict":"亮马桥/三元桥","categoryId":4,"cityId":1,"commentTags":null,"cuisineStyle":"美容/SPA","discountDesc":null,"discountIconUrl":null,"distance":"","highLigth":"专业细腻的按摩手法","hostName":"京臣经Spa(亮马河店)","id":116685,"isHaveEquities":0,"isInterested":0,"isJoinRedPacket":0,"latitude":"39.945953","linkUrl":"yhouse://host/116685?categoryId=4","logoUrl":"http://p.yhres.com/hostInfo/2017/01/12/1484216181332475.jpg-ssq75","longitude":"116.462748","packageDesc":null,"packageIconUrl":null,"picUrl":"http://p.yhres.com/hostInfo/2017/01/10/1484035015348612.jpg-q75h","price":null,"priceStr":null,"publicityWord":"","recommendDesc":null,"recommendSubHead":null,"recommendTitle":null,"specialty":null,"tagArr":[],"tagArrDesc":null,"title":"京臣经Spa(亮马河店)","vipEqsTag":""}],"itemLayout":3,"itemType":7}],"extraData":{"rocket":null,"hostSearchSchemeUrl":"yhouse://search?bizType=2&catalog=32&filter=32&title=%e7%be%8e%e5%ae%b9%2fSPA%e7%ad%9b%e9%80%89&cityId=1"},"isEnd":0,"nextPage":5,"page":4,"pageSize":10,"pid":"116621,116633,116643,116644,116645,116647,116659,116666,116667,116685","totalRows":316},"detail":"","message":"success"}