{"code":"0","data":{"doc":[{"itemData":[{"address":"工体北路66号瑞士公寓B座2号楼3A号","businessesDistrict":"三里屯","categoryId":4,"cityId":1,"commentTags":null,"cuisineStyle":"美容/SPA","discountDesc":null,"discountIconUrl":null,"distance":"","highLigth":"始于公元2000年的老牌美容会所","hostName":"TIME SPA(三里屯店)","id":48662,"isHaveEquities":0,"isInterested":0,"isJoinRedPacket":0,"latitude":"39.932839","linkUrl":"yhouse://host/48662?categoryId=4","logoUrl":"http://p.yhres.com/hostInfo/2016/12/07/1481105824478272.jpg-ssq75","longitude":"116.437139","packageDesc":null,"packageIconUrl":null,"picUrl":"http://p.yhres.com/hostInfo/2016/12/07/1481105824391074.jpg-q75h","price":1363,"priceStr":"人均: 1363元","publicityWord":"","recommendDesc":null,"recommendSubHead":null,"recommendTitle":null,"specialty":null,"tagArr":[],"tagArrDesc":null,"title":"TIME SPA(三里屯店)","vipEqsTag":""},{"address":"朝阳北路长楹天街西区商业街C201号(近华联购物中心，长楹天街购物中心)","businessesDistrict":"常营","categoryId":4,"cityId":1,"commentTags":null,"cuisineStyle":"美容/SPA","discountDesc":null,"discountIconUrl":null,"distance":"","highLigth":"不同主题房型环境为特色的养生会所","hostName":"奇境主题养生馆GinSPA(常营店)","id":48308,"isHaveEquities":0,"isInterested":0,"isJoinRedPacket":0,"latitude":"39.924349","linkUrl":"yhouse://host/48308?categoryId=4","logoUrl":"http://p.yhres.com/hostInfo/2016/12/08/1481176580246880.jpg-ssq75","longitude":"116.597305","packageDesc":null,"packageIconUrl":null,"picUrl":"http://p.yhres.com/hostInfo/2016/11/30/1480493123618094.jpg-q75h","price":248,"priceStr":"人均: 248元","publicityWord":"","recommendDesc":null,"recommendSubHead":null,"recommendTitle":null,"specialty":null,"tagArr":[],"tagArrDesc":null,"title":"奇境主题养生馆GinSPA(常营店)","vipEqsTag":""},{"address":"亚运村小营北路55号二层(汉拿山汤泉会馆西北","businessesDistrict":"亚运村","categoryId":4,"cityId":1,"commentTags":null,"cuisineStyle":"美容/SPA","discountDesc":null,"discountIconUrl":null,"distance":"","highLigth":"融合足疗养生 spa美体 文化传媒","hostName":"泰仙宫泰式spa足道养生会馆(亚运村店)","id":48663,"isHaveEquities":0,"isInterested":0,"isJoinRedPacket":0,"latitude":"39.998185","linkUrl":"yhouse://host/48663?categoryId=4","logoUrl":"http://p.yhres.com/hostInfo/2016/12/08/1481164855222467.jpg-ssq75","longitude":"116.4247","packageDesc":null,"packageIconUrl":null,"picUrl":"http://p.yhres.com/hostInfo/2016/12/08/1481164855131093.jpg-q75h","price":282,"priceStr":"人均: 282元","publicityWord":"","recommendDesc":null,"recommendSubHead":null,"recommendTitle":null,"specialty":null,"tagArr":[],"tagArrDesc":null,"title":"泰仙宫泰式spa足道养生会馆(亚运村店)","vipEqsTag":""},{"address":"前门大街鲜鱼口老字号美食街92号院内","businessesDistrict":"前门","categoryId":4,"cityId":1,"commentTags":null,"cuisineStyle":"美容/SPA","discountDesc":null,"discountIconUrl":null,"distance":"","highLigth":"不同主题房型环境为特色的养生会所","hostName":"奇境主题养生馆GinSPA(前门旗舰店)","id":48310,"isHaveEquities":0,"isInterested":0,"isJoinRedPacket":0,"latitude":"39.895804","linkUrl":"yhouse://host/48310?categoryId=4","logoUrl":"http://p.yhres.com/hostInfo/2016/12/08/1481176638704460.jpg-ssq75","longitude":"116.398724","packageDesc":null,"packageIconUrl":null,"picUrl":"http://p.yhres.com/hostInfo/2016/12/07/1481089682919411.jpg-q75h","price":355,"priceStr":"人均: 355元","publicityWord":"","recommendDesc":null,"recommendSubHead":null,"recommendTitle":null,"specialty":null,"tagArr":[],"tagArrDesc":null,"title":"奇境主题养生馆GinSPA(前门旗舰店)","vipEqsTag":""},{"address":"广渠路双井九龙花园5号楼临街底商(首城国际北门对面)","businessesDistrict":"大望路","categoryId":4,"cityId":1,"commentTags":null,"cuisineStyle":"美容/SPA","discountDesc":null,"discountIconUrl":null,"distance":"","highLigth":"首家提出“有机身活”概念","hostName":"奇境主题养生馆GinSPA(双井店)","id":48312,"isHaveEquities":0,"isInterested":0,"isJoinRedPacket":0,"latitude":"39.890161","linkUrl":"yhouse://host/48312?categoryId=4","logoUrl":"http://p.yhres.com/hostInfo/2016/11/25/1480043262171875.jpg-ssq75","longitude":"116.468047","packageDesc":null,"packageIconUrl":null,"picUrl":"http://p.yhres.com/hostInfo/2016/11/25/1480043262090006.jpg-q75h","price":288,"priceStr":"人均: 288元","publicityWord":"","recommendDesc":null,"recommendSubHead":null,"recommendTitle":null,"specialty":null,"tagArr":[],"tagArrDesc":null,"title":"奇境主题养生馆GinSPA(双井店)","vipEqsTag":""},{"address":"育慧北路育慧里一区四号楼负一层","businessesDistrict":"亚运村","categoryId":4,"cityId":1,"commentTags":null,"cuisineStyle":"美容/SPA","discountDesc":null,"discountIconUrl":null,"distance":"","highLigth":"多套餐多项目的多种选择","hostName":"奇境主题养生馆GinSPA(未来广场店)","id":48314,"isHaveEquities":0,"isInterested":0,"isJoinRedPacket":0,"latitude":"39.990786","linkUrl":"yhouse://host/48314?categoryId=4","logoUrl":"http://p.yhres.com/hostInfo/2016/11/25/1480051788688515.jpg-ssq75","longitude":"116.430456","packageDesc":null,"packageIconUrl":null,"picUrl":"http://p.yhres.com/hostInfo/2016/11/25/1480051788592567.jpg-q75h","price":255,"priceStr":"人均: 255元","publicityWord":"","recommendDesc":null,"recommendSubHead":null,"recommendTitle":null,"specialty":null,"tagArr":[],"tagArrDesc":null,"title":"奇境主题养生馆GinSPA(未来广场店)","vipEqsTag":""},{"address":"北京市建国门外大街22号赛特俱乐部二层","businessesDistrict":"建外大街","categoryId":4,"cityId":1,"commentTags":null,"cuisineStyle":"美容/SPA","discountDesc":null,"discountIconUrl":null,"distance":"","highLigth":"统健身中心、健康管理中心   美容院","hostName":"攥住美健音乐SPA（赛特店）","id":219655,"isHaveEquities":0,"isInterested":0,"isJoinRedPacket":0,"latitude":"39.906445","linkUrl":"yhouse://host/219655?categoryId=4","logoUrl":"","longitude":"116.441689","packageDesc":null,"packageIconUrl":null,"picUrl":"http://p.yhres.com/hostInfo/2018/06/22/1529657777054019.png-q75h","price":400,"priceStr":"人均: 400元","publicityWord":"","recommendDesc":null,"recommendSubHead":null,"recommendTitle":null,"specialty":null,"tagArr":[],"tagArrDesc":null,"title":"攥住美健音乐SPA（赛特店）","vipEqsTag":""},{"address":"北京市西城区三里河东路34号","businessesDistrict":"新街口","categoryId":4,"cityId":1,"commentTags":null,"cuisineStyle":"美容/SPA","discountDesc":null,"discountIconUrl":null,"distance":"","highLigth":"统健身中心、健康管理中心","hostName":"攥住美健音乐SPA   (长安店)","id":219654,"isHaveEquities":0,"isInterested":0,"isJoinRedPacket":0,"latitude":"39.908448","linkUrl":"yhouse://host/219654?categoryId=4","logoUrl":"","longitude":"116.344534","packageDesc":null,"packageIconUrl":null,"picUrl":"http://p.yhres.com/hostInfo/2018/06/20/1529482995353311.jpg-q75h","price":400,"priceStr":"人均: 400元","publicityWord":"","recommendDesc":null,"recommendSubHead":null,"recommendTitle":null,"specialty":null,"tagArr":[],"tagArrDesc":null,"title":"攥住美健音乐SPA   (长安店)","vipEqsTag":""},{"address":"东三环北路30号紫荆豪庭2座26H(京广中心东北角)","businessesDistrict":"朝阳其它","categoryId":4,"cityId":1,"commentTags":null,"cuisineStyle":"美容/SPA","discountDesc":null,"discountIconUrl":null,"distance":"","highLigth":"致力于成为“成功男人的健康管家“","hostName":"都仕雅阁男士健康养生机构（北京国贸店）","id":219561,"isHaveEquities":0,"isInterested":0,"isJoinRedPacket":0,"latitude":"39.924644","linkUrl":"yhouse://host/219561?categoryId=4","logoUrl":"","longitude":"116.462339","packageDesc":null,"packageIconUrl":null,"picUrl":"http://p.yhres.com/hostInfo/2018/05/16/1526433854889368.jpg-q75h","price":402,"priceStr":"人均: 402元","publicityWord":"","recommendDesc":null,"recommendSubHead":null,"recommendTitle":null,"specialty":null,"tagArr":[],"tagArrDesc":null,"title":"都仕雅阁男士健康养生机构（北京国贸店）","vipEqsTag":""},{"address":"海紫竹院路81号院10号名邸B栋507室(近车道沟桥)","businessesDistrict":"紫竹桥","categoryId":4,"cityId":1,"commentTags":null,"cuisineStyle":"美容/SPA","discountDesc":null,"discountIconUrl":null,"distance":"","highLigth":"新兴的男士美容行业里的“老字号”企业","hostName":"都仕雅阁男士健康养生机构（北京紫竹院路店）","id":219560,"isHaveEquities":0,"isInterested":0,"isJoinRedPacket":0,"latitude":"39.947558","linkUrl":"yhouse://host/219560?categoryId=4","logoUrl":"http://p.yhres.com/hostInfo/2018/05/16/1526432896878631.jpg-ssq75","longitude":"116.297274","packageDesc":null,"packageIconUrl":null,"picUrl":"http://p.yhres.com/hostInfo/2018/05/16/1526433256410055.jpg-q75h","price":344,"priceStr":"人均: 344元","publicityWord":"","recommendDesc":null,"recommendSubHead":null,"recommendTitle":null,"specialty":null,"tagArr":[],"tagArrDesc":null,"title":"都仕雅阁男士健康养生机构（北京紫竹院路店）","vipEqsTag":""}],"itemLayout":3,"itemType":7}],"extraData":{"rocket":null,"hostSearchSchemeUrl":"yhouse://search?bizType=2&catalog=32&filter=32&title=%e7%be%8e%e5%ae%b9%2fSPA%e7%ad%9b%e9%80%89&cityId=1"},"isEnd":0,"nextPage":3,"page":2,"pageSize":10,"pid":"48662,48308,48663,48310,48312,48314,219655,219654,219561,219560","totalRows":316},"detail":"","message":"success"}