{"code":"0","data":{"doc":[{"itemData":[{"id":38,"menuHref":"yhouse://search?bizType=2&filter=3&catalog=32&sort=2","menuIcon":"http://r.yhres.com/home/near@3x.png?v2","menuName":"附近"},{"id":36,"menuHref":"yhouse://search?bizType=2&filter=3&catalog=32&sort=3","menuIcon":"http://r.yhres.com/home/new@3x.png?v2","menuName":"最新"},{"id":37,"menuHref":"yhouse://search?bizType=2&filter=3&catalog=32&sort=4","menuIcon":"http://r.yhres.com/home/hot@3x.png?v3","menuName":"最热"},{"id":5,"menuHref":"yhouse://invitation2","menuIcon":"http://r.yhres.com/home/invitationcard@3x.png","menuName":"电子请柬"}],"itemLayout":0,"itemType":40},{"iconUrl":"https://r.yhres.com/cityguide/cityhead@w82_h82.png","itemData":[{"userBehavior":"被3072人标记想去","dataType":4,"schemeUrl":"yhouse://web?title=%E5%9F%8E%E5%B8%82%E5%A4%B4%E6%9D%A1&url=hosts-activities-app%3Ftype%3D4%26pos%3Dnull%26cityId%3D1&hideShortcut=1","showPicSmallUrl":"http://p.yhres.com/host/2016/11/01/1477988641179423.jpg-ssq75","id":23939,"title":"同城人气好店","content":"霖舍"},{"userBehavior":"被3051人标记想去","dataType":4,"schemeUrl":"yhouse://web?title=%E5%9F%8E%E5%B8%82%E5%A4%B4%E6%9D%A1&url=hosts-activities-app%3Ftype%3D4%26pos%3Dnull%26cityId%3D1&hideShortcut=1","showPicSmallUrl":"http://p.yhres.com/hostInfo/2016/12/28/1482913320992696.jpg-ssq75","id":67114,"title":"同城人气好店","content":"ZooYoo佐佑(鼓楼店)"},{"userBehavior":"","dataType":1,"schemeUrl":"yhouse://share-topic/107","showPicSmallUrl":"http://f.yhres.com/topic/cover/2017/08/29/1504006515016376.jpg-ssq75","userName":"","userId":"","content":"去宫崎骏的童真世界"},{"userBehavior":"入驻了","createTime":1530633600000,"dataType":5,"schemeUrl":"yhouse://web?title=%E5%9F%8E%E5%B8%82%E5%A4%B4%E6%9D%A1&url=hosts-activities-app%3Ftype%3D5%26pos%3Dnull%26cityId%3D1&hideShortcut=1","showPicSmallUrl":"http://p.yhres.com/host/logo/chinese@3x.png-ssq75","id":28696,"title":"同城新店入驻","content":"北京金茂万丽酒店•万丽轩"},{"userBehavior":"入驻了","createTime":1530547200000,"dataType":5,"schemeUrl":"yhouse://web?title=%E5%9F%8E%E5%B8%82%E5%A4%B4%E6%9D%A1&url=hosts-activities-app%3Ftype%3D5%26pos%3Dnull%26cityId%3D1&hideShortcut=1","showPicSmallUrl":"http://p.yhres.com/hostInfo/2018/07/03/1530590072660707.jpg-ssq75","id":219704,"title":"同城新店入驻","content":"小龍行江湖老火锅"},{"userBehavior":"入驻了","createTime":1530547200000,"dataType":5,"schemeUrl":"yhouse://web?title=%E5%9F%8E%E5%B8%82%E5%A4%B4%E6%9D%A1&url=hosts-activities-app%3Ftype%3D5%26pos%3Dnull%26cityId%3D1&hideShortcut=1","showPicSmallUrl":"http://p.yhres.com/hostInfo/2018/07/03/1530590807702083.jpg-ssq75","id":219705,"title":"同城新店入驻","content":"布鲁餐厅（北京）"},{"userBehavior":"入驻了","createTime":1530547200000,"dataType":5,"schemeUrl":"yhouse://web?title=%E5%9F%8E%E5%B8%82%E5%A4%B4%E6%9D%A1&url=hosts-activities-app%3Ftype%3D5%26pos%3Dnull%26cityId%3D1&hideShortcut=1","showPicSmallUrl":"http://p.yhres.com/hostInfo/2018/07/03/1530591394782537.jpg-ssq75","id":219706,"title":"同城新店入驻","content":"壹树咖啡 coffee(牡丹园店)"},{"userBehavior":"入驻了","createTime":1530547200000,"dataType":5,"schemeUrl":"yhouse://web?title=%E5%9F%8E%E5%B8%82%E5%A4%B4%E6%9D%A1&url=hosts-activities-app%3Ftype%3D5%26pos%3Dnull%26cityId%3D1&hideShortcut=1","showPicSmallUrl":"http://p.yhres.com/hostInfo/2018/07/03/1530602045699494.jpg-ssq75","id":219707,"title":"同城新店入驻","content":"暖居和食料理"},{"userBehavior":"入驻了","createTime":1530547200000,"dataType":5,"schemeUrl":"yhouse://web?title=%E5%9F%8E%E5%B8%82%E5%A4%B4%E6%9D%A1&url=hosts-activities-app%3Ftype%3D5%26pos%3Dnull%26cityId%3D1&hideShortcut=1","showPicSmallUrl":"http://p.yhres.com/hostInfo/2018/07/03/1530602943158768.jpg-ssq75","id":219708,"title":"同城新店入驻","content":"鳗富士"},{"userBehavior":"入驻了","createTime":1530547200000,"dataType":5,"schemeUrl":"yhouse://web?title=%E5%9F%8E%E5%B8%82%E5%A4%B4%E6%9D%A1&url=hosts-activities-app%3Ftype%3D5%26pos%3Dnull%26cityId%3D1&hideShortcut=1","showPicSmallUrl":"http://p.yhres.com/hostInfo/2018/07/03/1530603747903592.jpg-ssq75","id":219709,"title":"同城新店入驻","content":"相扑烧肉"}],"itemLayout":1,"itemType":50},{"itemData":null,"itemLayout":2,"itemType":30},{"itemData":[{"address":"北京市朝阳区芳园西路6号院颐锦广场内","businessesDistrict":"望京","categoryId":4,"cityId":1,"commentTags":null,"cuisineStyle":"美容/SPA","discountDesc":null,"discountIconUrl":null,"distance":"","highLigth":"融合西方经典芳香疗法和现代运动理论","hostName":"怡然养身yispa&massage","id":190724,"isHaveEquities":0,"isInterested":0,"isJoinRedPacket":0,"latitude":"39.975171","linkUrl":"yhouse://host/190724?categoryId=4","logoUrl":"http://p.yhres.com/hostInfo/2017/05/24/1495595261710611.jpg-ssq75","longitude":"116.481314","packageDesc":null,"packageIconUrl":null,"picUrl":"http://p.yhres.com/hostInfo/2017/05/11/1494485366655633.jpg-q75h","price":326,"priceStr":"人均: 326元","publicityWord":"","recommendDesc":null,"recommendSubHead":"猜你喜欢的人气好店","recommendTitle":"每日推荐","specialty":null,"tagArr":[],"tagArrDesc":null,"title":"怡然养身yispa&massage","vipEqsTag":""},{"address":"南三里屯路1号通盈中心洲际酒店5层","businessesDistrict":"三里屯","categoryId":4,"cityId":1,"commentTags":null,"cuisineStyle":"美容/SPA","discountDesc":null,"discountIconUrl":null,"distance":"","highLigth":"引进上海著名的水疗中心","hostName":"green essence 青籁优体","id":48280,"isHaveEquities":0,"isInterested":0,"isJoinRedPacket":0,"latitude":"39.932766","linkUrl":"yhouse://host/48280?categoryId=4","logoUrl":"http://p.yhres.com/hostInfo/2016/12/06/1481000527983120.jpg-ssq75","longitude":"116.455079","packageDesc":null,"packageIconUrl":null,"picUrl":"http://p.yhres.com/hostInfo/2016/12/06/1481000527899055.jpg-q75h","price":598,"priceStr":"人均: 598元","publicityWord":"","recommendDesc":null,"recommendSubHead":null,"recommendTitle":null,"specialty":null,"tagArr":[],"tagArrDesc":null,"title":"green essence 青籁优体","vipEqsTag":""},{"address":"朝外SOHO,B座B1楼b115室地铁6号线东大桥D口出右转10米再右转直走到红绿灯左前方看到朝外SOHO下台阶","businessesDistrict":"朝外大街","categoryId":4,"cityId":1,"commentTags":null,"cuisineStyle":"美容/SPA","discountDesc":null,"discountIconUrl":null,"distance":"","highLigth":"首家提出“有机身活”概念","hostName":"奇境主题养生馆GinSPA(朝外SOHO店)","id":48309,"isHaveEquities":0,"isInterested":0,"isJoinRedPacket":0,"latitude":"39.91964","linkUrl":"yhouse://host/48309?categoryId=4","logoUrl":"http://p.yhres.com/hostInfo/2016/11/29/1480411405493315.jpg-ssq75","longitude":"116.45464","packageDesc":null,"packageIconUrl":null,"picUrl":"http://p.yhres.com/hostInfo/2016/11/29/1480411405419605.jpg-q75h","price":263,"priceStr":"人均: 263元","publicityWord":"","recommendDesc":null,"recommendSubHead":null,"recommendTitle":null,"specialty":null,"tagArr":[],"tagArrDesc":null,"title":"奇境主题养生馆GinSPA(朝外SOHO店)","vipEqsTag":""},{"address":"悠唐购物中心三层","businessesDistrict":"朝外大街","categoryId":4,"cityId":1,"commentTags":null,"cuisineStyle":"美容/SPA","discountDesc":null,"discountIconUrl":null,"distance":"","highLigth":"国内高档美肤SPA 连锁机构","hostName":"LOTIONSPA露芯抹茶美人SPA馆(朝阳门悠唐购物中心店)","id":48292,"isHaveEquities":0,"isInterested":0,"isJoinRedPacket":0,"latitude":"39.921734","linkUrl":"yhouse://host/48292?categoryId=4","logoUrl":"http://p.yhres.com/hostInfo/2016/12/07/1481101629431296.jpg-ssq75","longitude":"116.439436","packageDesc":null,"packageIconUrl":null,"picUrl":"http://p.yhres.com/hostInfo/2016/12/07/1481101629337738.png-q75h","price":398,"priceStr":"人均: 398元","publicityWord":"","recommendDesc":null,"recommendSubHead":null,"recommendTitle":null,"specialty":null,"tagArr":[],"tagArrDesc":null,"title":"LOTIONSPA露芯抹茶美人SPA馆(朝阳门悠唐购物中心店)","vipEqsTag":""},{"address":"金城坊街2号金融街购物中心L312号(近丽思卡尔顿酒店)","businessesDistrict":"复兴门","categoryId":4,"cityId":1,"commentTags":null,"cuisineStyle":"美容/SPA","discountDesc":null,"discountIconUrl":null,"distance":"","highLigth":"上海家化联合股份有限公司旗下品牌","hostName":"佰草集汉方SPA(金融街店)","id":48300,"isHaveEquities":0,"isInterested":0,"isJoinRedPacket":0,"latitude":"39.91557","linkUrl":"yhouse://host/48300?categoryId=4","logoUrl":"http://p.yhres.com/hostInfo/2016/12/01/1480562607099350.jpg-ssq75","longitude":"116.361827","packageDesc":null,"packageIconUrl":null,"picUrl":"http://p.yhres.com/hostInfo/2016/12/01/1480562607042567.jpg-q75h","price":400,"priceStr":"人均: 400元","publicityWord":"","recommendDesc":null,"recommendSubHead":null,"recommendTitle":null,"specialty":null,"tagArr":[],"tagArrDesc":null,"title":"佰草集汉方SPA(金融街店)","vipEqsTag":""},{"address":"三里屯SOHO商场5，5楼，5507(三里屯SOHO商场，工人体育场)","businessesDistrict":"三里屯","categoryId":4,"cityId":1,"commentTags":null,"cuisineStyle":"美容/SPA","discountDesc":null,"discountIconUrl":null,"distance":"","highLigth":"首家提出“有机身活”概念","hostName":"奇境主题养生馆GinSPA(三里屯店)","id":48311,"isHaveEquities":0,"isInterested":0,"isJoinRedPacket":0,"latitude":"39.932254","linkUrl":"yhouse://host/48311?categoryId=4","logoUrl":"http://p.yhres.com/hostInfo/2016/12/01/1480560131678667.jpg-ssq75","longitude":"116.453598","packageDesc":null,"packageIconUrl":null,"picUrl":"http://p.yhres.com/hostInfo/2016/12/01/1480560131604640.jpg-q75h","price":236,"priceStr":"人均: 236元","publicityWord":"","recommendDesc":null,"recommendSubHead":null,"recommendTitle":null,"specialty":null,"tagArr":[],"tagArrDesc":null,"title":"奇境主题养生馆GinSPA(三里屯店)","vipEqsTag":""},{"address":"望京阜通西大街宝星华庭6号楼1F","businessesDistrict":"望京","categoryId":4,"cityId":1,"commentTags":null,"cuisineStyle":"美容/SPA","discountDesc":null,"discountIconUrl":null,"distance":"","highLigth":"韩国专业护肤美容机构","hostName":"Dr.Han 韩国美容皮肤管理中心","id":48657,"isHaveEquities":0,"isInterested":0,"isJoinRedPacket":0,"latitude":"39.998659","linkUrl":"yhouse://host/48657?categoryId=4","logoUrl":"http://p.yhres.com/hostInfo/2016/12/07/1481102889873974.jpg-ssq75","longitude":"116.480801","packageDesc":null,"packageIconUrl":null,"picUrl":"http://p.yhres.com/hostInfo/2016/12/07/1481102889796478.jpg-q75h","price":1327,"priceStr":"人均: 1327元","publicityWord":"","recommendDesc":null,"recommendSubHead":null,"recommendTitle":null,"specialty":null,"tagArr":[],"tagArrDesc":null,"title":"Dr.Han 韩国美容皮肤管理中心","vipEqsTag":""},{"address":"阜通西大街望京西园三区314号楼B座4单元102底商临街底商","businessesDistrict":"望京","categoryId":4,"cityId":1,"commentTags":null,"cuisineStyle":"美容/SPA","discountDesc":null,"discountIconUrl":null,"distance":"","highLigth":"特色主题式装修风格","hostName":"奇境主题养生馆GinSPA(望京店)","id":48313,"isHaveEquities":0,"isInterested":0,"isJoinRedPacket":0,"latitude":"40.004173","linkUrl":"yhouse://host/48313?categoryId=4","logoUrl":"http://p.yhres.com/hostInfo/2016/11/29/1480407584806925.jpg-ssq75","longitude":"116.474395","packageDesc":null,"packageIconUrl":null,"picUrl":"http://p.yhres.com/hostInfo/2016/11/29/1480407584729423.jpg-q75h","price":269,"priceStr":"人均: 269元","publicityWord":"","recommendDesc":null,"recommendSubHead":null,"recommendTitle":null,"specialty":null,"tagArr":[],"tagArrDesc":null,"title":"奇境主题养生馆GinSPA(望京店)","vipEqsTag":""},{"address":"西土城路1号院1号楼泰富酒店B1","businessesDistrict":"知春路","categoryId":4,"cityId":1,"commentTags":null,"cuisineStyle":"美容/SPA","discountDesc":null,"discountIconUrl":null,"distance":"","highLigth":"北京第一家泰国大使馆认证的泰式SPA","hostName":"iSpa(知春路店)","id":48660,"isHaveEquities":0,"isInterested":0,"isJoinRedPacket":0,"latitude":"39.975048","linkUrl":"yhouse://host/48660?categoryId=4","logoUrl":"http://p.yhres.com/hostInfo/2016/12/07/1481104421308658.jpg-ssq75","longitude":"116.352578","packageDesc":null,"packageIconUrl":null,"picUrl":"http://p.yhres.com/hostInfo/2016/12/07/1481104421155496.jpg-q75h","price":692,"priceStr":"人均: 692元","publicityWord":"","recommendDesc":null,"recommendSubHead":null,"recommendTitle":null,"specialty":null,"tagArr":[],"tagArrDesc":null,"title":"iSpa(知春路店)","vipEqsTag":""},{"address":"东四环中路远洋国际C座101","businessesDistrict":"四惠","categoryId":4,"cityId":1,"commentTags":null,"cuisineStyle":"美容/SPA","discountDesc":null,"discountIconUrl":null,"distance":"","highLigth":"特色的主题房型环境","hostName":"奇境主题养生馆GinSPA(远洋国际店)","id":48315,"isHaveEquities":0,"isInterested":0,"isJoinRedPacket":0,"latitude":"39.913006","linkUrl":"yhouse://host/48315?categoryId=4","logoUrl":"http://p.yhres.com/hostInfo/2016/12/08/1481176598666951.jpg-ssq75","longitude":"116.491267","packageDesc":null,"packageIconUrl":null,"picUrl":"http://p.yhres.com/hostInfo/2016/11/30/1480493493906793.jpg-q75h","price":206,"priceStr":"人均: 206元","publicityWord":"","recommendDesc":null,"recommendSubHead":null,"recommendTitle":null,"specialty":null,"tagArr":[],"tagArrDesc":null,"title":"奇境主题养生馆GinSPA(远洋国际店)","vipEqsTag":""}],"itemLayout":3,"itemType":7}],"extraData":{"rocket":{"reserveBanner":[],"reserveList":[{"adsName":"reserveList","actual":false,"position":1,"content":[{"actual":false,"xsort":1,"schemeUrl":"yhouse://topic/8844","pvUrl":null,"description":null,"title":"优雅迎接换季","linkName":"TOPIC","picUrl":"http://p.yhres.com/topic/2017/09/14/156808_1505378147066.jpg-q75","linkId":8844,"linkUrl":"/topic/8844","linkType":6,"id":0,"sPicUrl":"http://p.yhres.com/topic/2017/09/14/156808_1505378147066.jpg-ssq75"},{"actual":false,"xsort":5,"schemeUrl":"yhouse://topic/8671","pvUrl":null,"description":null,"title":"赋予肌肤年轻状态","linkName":"TOPIC","picUrl":"http://p.yhres.com/topic/2017/09/07/156808_1504777483639.jpg-q75","linkId":8671,"linkUrl":"/topic/8671","linkType":6,"id":0,"sPicUrl":"http://p.yhres.com/topic/2017/09/07/156808_1504777483639.jpg-ssq75"}]}]},"hostSearchSchemeUrl":"yhouse://search?bizType=2&catalog=32&filter=32&title=%e7%be%8e%e5%ae%b9%2fSPA%e7%ad%9b%e9%80%89&cityId=1"},"isEnd":0,"nextPage":2,"page":1,"pageSize":10,"pid":"190724,48280,48309,48292,48300,48311,48657,48313,48660,48315","totalRows":316},"detail":"","message":"success"}