{"code":"0","data":{"doc":[{"itemData":[{"address":"北四环东路108号千鹤家园2号楼1302室(近华堂商场)","businessesDistrict":"亚运村","categoryId":4,"cityId":1,"commentTags":null,"cuisineStyle":"美容/SPA","discountDesc":null,"discountIconUrl":null,"distance":"","highLigth":"新兴的男士美容行业里的“老字号”企业","hostName":"都仕雅阁男士健康养生机构（北京亚运村店）","id":219559,"isHaveEquities":0,"isInterested":0,"isJoinRedPacket":0,"latitude":"39.985996","linkUrl":"yhouse://host/219559?categoryId=4","logoUrl":"http://p.yhres.com/hostInfo/2018/05/16/1526432433754703.jpg-ssq75","longitude":"116.417729","packageDesc":null,"packageIconUrl":null,"picUrl":"http://p.yhres.com/hostInfo/2018/05/16/1526432727177503.jpg-q75h","price":322,"priceStr":"人均: 322元","publicityWord":"","recommendDesc":null,"recommendSubHead":null,"recommendTitle":null,"specialty":null,"tagArr":[],"tagArrDesc":null,"title":"都仕雅阁男士健康养生机构（北京亚运村店）","vipEqsTag":""},{"address":"太平街6号富力摩根中心E座605","businessesDistrict":"陶然亭","categoryId":4,"cityId":1,"commentTags":null,"cuisineStyle":"美容/SPA","discountDesc":null,"discountIconUrl":null,"distance":"","highLigth":"健身器材仪器一应俱全","hostName":"Master健身工作室","id":212309,"isHaveEquities":0,"isInterested":0,"isJoinRedPacket":0,"latitude":"39.87952","linkUrl":"yhouse://host/212309?categoryId=4","logoUrl":"http://p.yhres.com/hostInfo/2017/10/10/1507629092374835.jpg-ssq75","longitude":"116.388035","packageDesc":null,"packageIconUrl":null,"picUrl":"http://p.yhres.com/hostInfo/2017/10/10/1507628985031811.jpg-q75h","price":1000,"priceStr":"人均: 1000元","publicityWord":"","recommendDesc":null,"recommendSubHead":null,"recommendTitle":null,"specialty":null,"tagArr":[],"tagArrDesc":null,"title":"Master健身工作室","vipEqsTag":""},{"address":"北京市朝阳区芳园西路6号院","businessesDistrict":"望京","categoryId":4,"cityId":1,"commentTags":null,"cuisineStyle":"美容/SPA","discountDesc":null,"discountIconUrl":null,"distance":"","highLigth":"专注提供消费级轻医美产品服务","hostName":"柠悦 丽都体验店","id":204687,"isHaveEquities":0,"isInterested":0,"isJoinRedPacket":0,"latitude":"39.974437","linkUrl":"yhouse://host/204687?categoryId=4","logoUrl":"http://p.yhres.com/hostInfo/2017/08/09/1502252072203325.jpg-ssq75","longitude":"116.481549","packageDesc":null,"packageIconUrl":null,"picUrl":"http://p.yhres.com/hostInfo/2017/08/09/1502252072110436.jpg-q75h","price":1000,"priceStr":"人均: 1000元","publicityWord":"","recommendDesc":null,"recommendSubHead":null,"recommendTitle":null,"specialty":null,"tagArr":[],"tagArrDesc":null,"title":"柠悦 丽都体验店","vipEqsTag":""},{"address":"酒仙桥路18号颐堤港商场LG层LG39店铺(近国宾酒店)","businessesDistrict":"酒仙桥","categoryId":4,"cityId":1,"commentTags":null,"cuisineStyle":"美容/SPA","discountDesc":null,"discountIconUrl":null,"distance":"","highLigth":"自家产品线优质产品的使用","hostName":"佰草集汉方SPA(颐堤港店)","id":48302,"isHaveEquities":0,"isInterested":0,"isJoinRedPacket":0,"latitude":"39.969675","linkUrl":"yhouse://host/48302?categoryId=4","logoUrl":"","longitude":"116.491317","packageDesc":null,"packageIconUrl":null,"picUrl":"http://p.yhres.com/hostInfo/2017/01/19/1484818844631157.jpg-q75h","price":604,"priceStr":"人均: 604元","publicityWord":"","recommendDesc":null,"recommendSubHead":null,"recommendTitle":null,"specialty":null,"tagArr":[],"tagArrDesc":null,"title":"佰草集汉方SPA(颐堤港店)","vipEqsTag":""},{"address":"科技会展B座6E","businessesDistrict":"中关村","categoryId":4,"cityId":1,"commentTags":null,"cuisineStyle":"美容/SPA","discountDesc":null,"discountIconUrl":null,"distance":"","highLigth":"纯正的泰式按摩手法","hostName":"泰秘丽人会(双安店)","id":116511,"isHaveEquities":0,"isInterested":0,"isJoinRedPacket":0,"latitude":"39.966474","linkUrl":"yhouse://host/116511?categoryId=4","logoUrl":"http://p.yhres.com/hostInfo/2017/01/17/1484641556519922.jpg-ssq75","longitude":"116.324351","packageDesc":null,"packageIconUrl":null,"picUrl":"http://p.yhres.com/hostInfo/2017/01/13/1484301764903459.jpg-q75h","price":null,"priceStr":null,"publicityWord":"","recommendDesc":null,"recommendSubHead":null,"recommendTitle":null,"specialty":null,"tagArr":[],"tagArrDesc":null,"title":"泰秘丽人会(双安店)","vipEqsTag":""},{"address":"建外大街美华世纪5楼","businessesDistrict":"三里屯","categoryId":4,"cityId":1,"commentTags":null,"cuisineStyle":"美容/SPA","discountDesc":null,"discountIconUrl":null,"distance":"","highLigth":"高端仪器的使用","hostName":"蘭女子spa会所","id":116517,"isHaveEquities":0,"isInterested":0,"isJoinRedPacket":0,"latitude":"39.905208","linkUrl":"yhouse://host/116517?categoryId=4","logoUrl":"http://p.yhres.com/hostInfo/2017/01/17/1484641829584631.png-ssq75","longitude":"116.443122","packageDesc":null,"packageIconUrl":null,"picUrl":"http://p.yhres.com/hostInfo/2017/01/13/1484301553541078.jpg-q75h","price":null,"priceStr":null,"publicityWord":"","recommendDesc":null,"recommendSubHead":null,"recommendTitle":null,"specialty":null,"tagArr":[],"tagArrDesc":null,"title":"蘭女子spa会所","vipEqsTag":""},{"address":"朝阳北路129号润枫嘉尚3号楼","businessesDistrict":"十里堡","categoryId":4,"cityId":1,"commentTags":null,"cuisineStyle":"美容/SPA","discountDesc":null,"discountIconUrl":null,"distance":"","highLigth":"专业的面部美容机构","hostName":"美Young抗衰中心","id":116551,"isHaveEquities":0,"isInterested":0,"isJoinRedPacket":0,"latitude":"39.924019","linkUrl":"yhouse://host/116551?categoryId=4","logoUrl":"http://p.yhres.com/hostInfo/2017/01/17/1484642105265329.jpg-ssq75","longitude":"116.503221","packageDesc":null,"packageIconUrl":null,"picUrl":"http://p.yhres.com/hostInfo/2017/01/13/1484301236535945.jpg-q75h","price":null,"priceStr":null,"publicityWord":"","recommendDesc":null,"recommendSubHead":null,"recommendTitle":null,"specialty":null,"tagArr":[],"tagArrDesc":null,"title":"美Young抗衰中心","vipEqsTag":""},{"address":"远洋新干线A座22A01室","businessesDistrict":"亮马桥/三元桥","categoryId":4,"cityId":1,"commentTags":null,"cuisineStyle":"美容/SPA","discountDesc":null,"discountIconUrl":null,"distance":"","highLigth":"纯正的按摩手法","hostName":"泰秘丽人会(北京三元桥)","id":116604,"isHaveEquities":0,"isInterested":0,"isJoinRedPacket":0,"latitude":"39.957419","linkUrl":"yhouse://host/116604?categoryId=4","logoUrl":"http://p.yhres.com/hostInfo/2017/01/17/1484642166590988.jpg-ssq75","longitude":"116.459955","packageDesc":null,"packageIconUrl":null,"picUrl":"http://p.yhres.com/hostInfo/2017/01/13/1484300831548279.jpg-q75h","price":null,"priceStr":null,"publicityWord":"","recommendDesc":null,"recommendSubHead":null,"recommendTitle":null,"specialty":null,"tagArr":[],"tagArrDesc":null,"title":"泰秘丽人会(北京三元桥)","vipEqsTag":""},{"address":"北苑北拂林园2号楼104","businessesDistrict":"建外大街","categoryId":4,"cityId":1,"commentTags":null,"cuisineStyle":"美容/SPA","discountDesc":null,"discountIconUrl":null,"distance":"","highLigth":"优质植物按摩精油的使用","hostName":"克丽缇娜(风林绿洲店)","id":116155,"isHaveEquities":0,"isInterested":0,"isJoinRedPacket":0,"latitude":"39.90638","linkUrl":"yhouse://host/116155?categoryId=4","logoUrl":"http://p.yhres.com/hostInfo/2017/01/17/1484638203012366.jpg-ssq75","longitude":"116.41232","packageDesc":null,"packageIconUrl":null,"picUrl":"http://p.yhres.com/hostInfo/2017/01/13/1484300567921282.jpg-q75h","price":null,"priceStr":null,"publicityWord":"","recommendDesc":null,"recommendSubHead":null,"recommendTitle":null,"specialty":null,"tagArr":[],"tagArrDesc":null,"title":"克丽缇娜(风林绿洲店)","vipEqsTag":""},{"address":"健翔园海创大厦","businessesDistrict":"五道口","categoryId":4,"cityId":1,"commentTags":null,"cuisineStyle":"美容/SPA","discountDesc":null,"discountIconUrl":null,"distance":"","highLigth":"精准的力道控制和按摩手法","hostName":"克丽缇娜(健翔桥店)","id":116616,"isHaveEquities":0,"isInterested":0,"isJoinRedPacket":0,"latitude":"39.989344","linkUrl":"yhouse://host/116616?categoryId=4","logoUrl":"http://p.yhres.com/hostInfo/2017/01/17/1484637298203369.jpg-ssq75","longitude":"116.37496","packageDesc":null,"packageIconUrl":null,"picUrl":"http://p.yhres.com/hostInfo/2017/01/13/1484300375320467.jpg-q75h","price":null,"priceStr":null,"publicityWord":"","recommendDesc":null,"recommendSubHead":null,"recommendTitle":null,"specialty":null,"tagArr":[],"tagArrDesc":null,"title":"克丽缇娜(健翔桥店)","vipEqsTag":""}],"itemLayout":3,"itemType":7}],"extraData":{"rocket":null,"hostSearchSchemeUrl":"yhouse://search?bizType=2&catalog=32&filter=32&title=%e7%be%8e%e5%ae%b9%2fSPA%e7%ad%9b%e9%80%89&cityId=1"},"isEnd":0,"nextPage":4,"page":3,"pageSize":10,"pid":"219559,212309,204687,48302,116511,116517,116551,116604,116155,116616","totalRows":316},"detail":"","message":"success"}