{"code":"0","data":{"doc":[{"data":{"id":1532238,"userId":"EKZ3AQD1Zmp1ZwuinSx","userName":"LifDDD🔥","userSchemeUrl":"yhouse://user/EKZ3AQD1Zmp1ZwuinSx","showPicSmallUrl":"http://f.yhres.com/editUserHeaderImage/2018/07/12/553080598912586.png-ssq75","isVip":0,"isPublic":0,"isTalent":0,"vipTitle":null,"vipIcon":null,"vipStyle":null,"title":"猫先森","coverPicUrl":"http://f.yhres.com/share_webcastEKZ3AQD1Zmp1ZwuinSx/2018/07/12/553081143819473_0@r_1662w_1247h.jpg-wq75","isLike":0,"likeUserNum":5,"shareType":1,"interest":null,"isHot":0,"preloadPic":"http://f.yhres.com/IMG_3245.png","preloadRatio":"5,7","preloadEncrypt":"jo+iAAAaYKXDncLmscjYhI2iU2WLjp+rfIeutsriop6dfX+tkZnEmpiyrbDEs4dwoKnMkrzxVnO8j4mvhYCoVnG2dpjAnbngpbnff4ekAEiXi6fG0uz/jbjkjYmPi7DUzuT5k73lAEqZ","description":"在一个懒洋洋的午后偶然间发现这家咖啡馆，坐标河北唐山。朝慵午倦谁相伴，猫枕桃笙苦竹床。猫很可爱，店里饮品味道也还不错，是一个撸猫的好地方。","linkTitle":null,"linkSchemeUrl":null,"linkType":"","picNum":"5张","createTime":1531388362000},"schemeUrl":"yhouse://article/1532238","title":"图文","type":91},{"data":{"id":1497993,"userId":"EKZ0AQH1BGpkAGWinSx","userName":"孟阿姨很嗨皮","userSchemeUrl":"yhouse://user/EKZ0AQH1BGpkAGWinSx","showPicSmallUrl":"http://f.yhres.com/editUserHeaderImage/2017/06/12/518970355604705.png-ssq75","isVip":0,"isPublic":0,"isTalent":1,"vipTitle":null,"vipIcon":null,"vipStyle":null,"title":"🌟散作满星河🌃","coverPicUrl":"http://f.yhres.com/wm/share_webcastEKZ0AQH1BGpkAGWinSx/2018/06/08/550129307194489_0@r_1763w_1175h.jpg-wq75","isLike":0,"likeUserNum":94,"shareType":1,"interest":null,"isHot":1,"preloadPic":"http://f.yhres.com/IMG_3249.png","preloadRatio":"5,7","preloadEncrypt":"5eTl2dje3Nzj7Ozx+vr7oqrQrK/Eqaa06Ojp/f3+ytTzxsjPpZ+s3Nvh///80NDXmJSikpK2h47Cw8bWvLrQg5PWoKbVj6XkqbHd5ePscofWXGK2YW3C297x8O/xysvfqqnL1tXi////","description":"“那一年我们望着星空，未来的未来从没想过，当故事失去美梦，美梦失去线索，而我们失去联络，这一片无言无语星空，为什么静静看我流泪。”\n\n🐰奥里里亚 Au relia Coffee\n📍中山北路1958号华源世界广场内1楼112\n营业时间:8:30～20:30（6月14日起世界杯期间晚上营业到凌晨4点）\n🅿️停车方便☎️无需预约\n💰人均80\n \n这是一家位于镇坪路地铁站附近的一家甜品店，店主自己奇思妙想，自称来自奥里里星，把这家甜品店幻作是宇宙的休息站，为来来往往的星球旅客提供甜品和休息。（恩….猜测店主应该是有个宇宙的梦想，宇航迷，星际迷，哈哈哈）\n \n🍰蛋糕类\n蛋糕每一款都是颜值高分，搭配盘子上的巧克力拉花、花瓣装饰以及不同的蛋糕会和不同的盘子搭配，更加明确主题和颜色的统一，可见店主的用心。\n \n🌃蓝色星空\n星空款蛋糕的主打之一，星空的外型让人迷恋，镜面的蛋糕表皮，光泽又具有高级感，口感顺滑细腻，有点像果冻，内层是酸酸甜甜的梅子口味。\n \n🌌奥里里亚\n店家的招牌蛋糕，深紫色的蛋糕体，磨砂质感，给人一种神秘又深邃的感觉，外层吃起来也有沙沙的口感，里面是太妃口味的夹心，甜甜的味道，有点反差萌\n \n🌹红丝绒玫瑰蛋糕\n玫瑰的外型极具浪漫，外层慕斯，巧克力口味的内馅儿，还有两个樱桃十分惊喜，整体的口味酸甜不腻，回味无穷。\n \n🌠忒伊亚\n纯手工的法国穆斯，白巧克力夹心，榛子巧克力底，口感非常浓郁，配合伯爵茶慕斯，非常美味。\n \n🚗红丝绒蛋糕\n奶油与蛋糕胚的结合恰到好处，顶层还有玫瑰花瓣装饰，口味适中。\n \n🍹饮料类\n与主题相呼应的饮料基本都是星空款和渐变色，咖啡和起泡水在DP上点击率最高\n\n☕️奥里里亚咖啡\n具有层次感的咖啡+牛奶+蓝柑橘果酱，还带有抹茶味，顶层的奶油很细腻，搅拌后增加了甜味。\n \n🍾上帝之眼\n渐变色的起泡水，碟豆花和蓝柑橘混合出了这么美的饮料，紫色配蓝色很有海洋、宇宙、星空的FEEL，喝之前需要好好搅拌一下哦。\n \n🌉极光\n这款饮料里是有灯的，一闪一闪，比上帝之眼上层多了奶油，和星空蛋糕搭配在一起真的是太好看啦！冰冰爽爽很畅快。\n \n💎曙光\n山竹黄桃口味，分层起泡水，搅拌均匀后缤纷的水果在口中蔓延。\n \n🎀孟阿姨的个人感受🎀\n这家店我已经三刷了，因为离家比较近，目前的单人下午茶套餐非常划算，招牌的蛋糕和饮料都有各种搭配！这家店是目前魔都屈指可数的星空主题咖啡店，发了朋友圈一直在被问地址，哈哈。另外，这次看到店里拉了一块幕布，问了才知道6月14日开始晚上也营业啦，和世界杯球赛时间无缝衔接，晚上也有限量的世界杯款套餐，香肠啤酒和足球最配了！🍺🌭\n\n环境指数⭐️⭐️⭐️⭐️⭐️\n美味指数⭐️⭐️⭐️⭐️⭐️\n服务指数⭐️⭐️⭐️⭐️⭐️\n推荐指数⭐️⭐️⭐️⭐️⭐️\n\n孟阿姨的下午茶时光听说今天周五啦吃遍上海下午茶蛋糕[超话]这一刻的小时光[超话]魔都美食星空[超话]星空蛋糕魔都吃货公会上海探店[超话]上海美食探店[超话]网红店[超话]带着微博吃美食世界杯魔都下午茶好去处魔都下午茶高颜值下午茶","linkTitle":null,"linkSchemeUrl":null,"linkType":"","picNum":"9张","createTime":1528436509000},"schemeUrl":"yhouse://article/1497993","title":"图文","type":91},{"data":{"id":1501825,"userId":"EKZ0AGNmZmH5AmOinSx","userName":"Ashley的可丽露","userSchemeUrl":"yhouse://user/EKZ0AGNmZmH5AmOinSx","showPicSmallUrl":"http://f.yhres.com/editUserHeaderImage/2018/06/03/549721918240345.png-ssq75","isVip":0,"isPublic":0,"isTalent":1,"vipTitle":null,"vipIcon":null,"vipStyle":null,"title":"CINKER PICTURES|遇见高级灰的温柔","coverPicUrl":"http://f.yhres.com/wm/share_webcastEKZ0AGNmZmH5AmOinSx/2018/06/11/550395057630895_0@r_1663w_1246h.jpg-wq75","isLike":0,"likeUserNum":90,"shareType":1,"interest":null,"isHot":1,"preloadPic":"http://f.yhres.com/IMG_3243.png","preloadRatio":"5,7","preloadEncrypt":"U5O/RYKyJk9yAAAAAAAGXZnHaaHFbqLAMUZYGQwAUZjCb6zUm83sZ4GJMDYAj7fQhrLWlLnUbn6USU5bt7/Bj8HYc7fRh5KmwsDElZmObrjXS7/nnquz4tzXqa6gq7m9l7DEv8HL5t/f","description":"从寒假种草到…暑假？\n🌚好吧!!赶在暑假前去拔草了~\n\n分为粉色与绿色的区域，还有露台与酒廊。粉色是下午茶，绿色是用餐区域，下午茶要两点才开始，不过提早一点到应该没事，可以拍拍照片💗店员都很nice!!!\n\n所有的颜色都加入了些许高级灰的调调，瞬间这个氛围都变得很温柔。周末的下午这里人也不会很多，同网红店不一样的就是这里的安静会使你不好意思大声说话💬\n\nBTW下午茶也很好吃！\nWith💗c10💗","linkTitle":"上海 CINKER PICTURES三克映画(兴业太古汇店) 南京西路","linkSchemeUrl":"yhouse://host/216439","linkType":"0","picNum":"9张","createTime":1528702313000},"schemeUrl":"yhouse://article/1501825","title":"图文","type":91},{"data":{"id":1531857,"userId":"EKZ0AQH1BGpkAGWinSx","userName":"孟阿姨很嗨皮","userSchemeUrl":"yhouse://user/EKZ0AQH1BGpkAGWinSx","showPicSmallUrl":"http://f.yhres.com/editUserHeaderImage/2017/06/12/518970355604705.png-ssq75","isVip":0,"isPublic":0,"isTalent":1,"vipTitle":null,"vipIcon":null,"vipStyle":null,"title":"魔都最好吃的面包店","coverPicUrl":"http://f.yhres.com/wm/share_webcastEKZ0AQH1BGpkAGWinSx/2018/07/12/553072426706398_0@r_1763w_1175h.jpg-wq75","isLike":0,"likeUserNum":86,"shareType":1,"interest":null,"isHot":1,"preloadPic":"http://f.yhres.com/IMG_3237.png","preloadRatio":"5,7","preloadEncrypt":"comkl5yuiJCoZXSTZ3ODg4WRR2GdfJPOXXvCACuKMlqHZYnKU3+vTXqEPnCWXYC+bJS3eJiXkqeca5OMTXCxXnytZn+YW3mCRGVzqqmqS2adPmWbBUlwNE9239S9urCcjI2Pam9+YF5n","description":"🐰PAIN CHAUD\n📍建国西路256号\n营业时间:8:00～22:00\n🅿️停车略不便☎️无需预约\n💰人均50\n\n之前永康路的店面就买过面包，那家色调比较黑暗，新开的这家就很明亮，而且宽敞很多，两层楼的空间，基本稍微等等就会有位置了。\n\n可颂面包🥐 美式咖啡☕️\n我一直都觉得这两个是绝配，特别是夏天的时候，提神又管饱，喜欢这家可颂的酥皮，美式加奶的慢慢融合，味道清甜。\n\n💕喜欢这家原木色的楼梯和落地玻璃门窗的光线，很适合过来坐坐\n\n上海探店[超话] 上海探店[超话] 上海美食探店[超话] 这一刻的小时光[超话] 网红店[超话] 吃遍上海下午茶 孟阿姨的下午茶时光 又来魔都轧马路 魔都美食 魔都下午茶好去处","linkTitle":null,"linkSchemeUrl":null,"linkType":"","picNum":"7张","createTime":1531379631000},"schemeUrl":"yhouse://article/1531857","title":"图文","type":91},{"data":{"id":1532037,"userId":"EKZ3ZGxkZGt0ZGEinSx","userName":"是JE啊","userSchemeUrl":"yhouse://user/EKZ3ZGxkZGt0ZGEinSx","showPicSmallUrl":"http://f.yhres.com/user_photo/2018/06/13/1528860447601250-ssq75","isVip":0,"isPublic":0,"isTalent":1,"vipTitle":null,"vipIcon":null,"vipStyle":null,"title":"皮箱工坊｜这家写字楼里的家庭式咖啡馆非常酷！","coverPicUrl":"http://f.yhres.com/share_article/2018/07/12/EKZ3ZGxkZGt0ZGEinSx_B5UJl4M9B@r_992w_1322h-wq75","isLike":0,"likeUserNum":59,"shareType":1,"interest":null,"isHot":1,"preloadPic":"http://f.yhres.com/IMG_3242.png","preloadRatio":"5,7","preloadEncrypt":"mI50q6GEopaRdmmXXVCLurKZwbecvbOjpp6jd3STyse3q7SroaeTvLuovLeqm6ObXZCsm7GzvcS9yca8vbuts7q5wcfDl6+xrLe4yca44NzOsLCpe4KAnaKfrKeZx8G2rqynhYaElpeV","description":"coffee map～\n\n皮箱工坊｜匆忙路过滨江，终于来“皮箱”打卡。这家开在写字楼里面的咖啡小馆，显得孤独却自如。\n八点打烊，在十五分钟内解决了dirty和百香果磅蛋糕。蛋糕和百香果搭配，口感果然不一般，酸甜又奇特。dirty的混合完美，一口下去有种回到家的错觉。\n\n见到了仔仔，明明是个boy却喜欢叔多过喜欢我。\n\n今天见识了天黑的“皮箱”一线江景，see u next time\n\n📍江汉路科技馆街路口“凯瑞金座”2310室","linkTitle":null,"linkSchemeUrl":null,"linkType":"","picNum":"9张","createTime":1531382755000},"schemeUrl":"yhouse://article/1532037","title":"图文","type":91},{"data":{"id":1499112,"userId":"EKZ0AGxjZGR3BQEinSx","userName":"magic  🐇","userSchemeUrl":"yhouse://user/EKZ0AGxjZGR3BQEinSx","showPicSmallUrl":"http://f.yhres.com/editUserHeaderImage/2018/06/21/551275329862533.png-ssq75","isVip":0,"isPublic":0,"isTalent":1,"vipTitle":null,"vipIcon":null,"vipStyle":null,"title":"天然卷发的都不是坏家伙","coverPicUrl":"http://f.yhres.com/share_webcastEKZ0AGxjZGR3BQEinSx/2018/06/09/550205722488215_0@r_750w_1125h.jpg-wq75","isLike":0,"likeUserNum":112,"shareType":1,"interest":null,"isHot":1,"preloadPic":"http://f.yhres.com/IMG_3248.png","preloadRatio":"5,7","preloadEncrypt":"r8nxudDzq8f0qsTotdD6rKqroqauqrnNxcrO6e73tLa4vLy7vr67srnI1NDOr66hu7qtsrCugIWSnKCrTVcAlKWtr7zUn5qXr6upe5Cry936tb3Pyc7XtLGhnaGvoZ+llZORiI6WN0Ei","description":"肯德基X银魂的限时主题店 翻越半座城来到松江大学城 目前上海的银魂KFC🍗主题仅限松江这家门店 两层楼面贴满了万事屋 银桑 伊丽莎白 假发和真选组壁纸 真爱粉表示一本满足\n\n外型似银桑蓝色卷发的海盐冰淇淋🍦口味被小伙伴强力吐槽 🤪仅作为拍照使用 另购买万事OK明星餐＋6元赠送的冰箱贴已售罄🤨 \n网红 咖啡店 下午茶 二次元","linkTitle":null,"linkSchemeUrl":null,"linkType":"","picNum":"9张","createTime":1528512926000},"schemeUrl":"yhouse://article/1499112","title":"图文","type":91},{"data":{"id":1502007,"userId":"EKZmZmx2BGR2AmEinSx","userName":"Hey_vitamin","userSchemeUrl":"yhouse://user/EKZmZmx2BGR2AmEinSx","showPicSmallUrl":"http://f.yhres.com/editUserHeaderImage/2017/07/05/520904809336312.png-ssq75","isVip":0,"isPublic":1,"isTalent":1,"vipTitle":null,"vipIcon":null,"vipStyle":null,"title":"小的馆","coverPicUrl":"http://f.yhres.com/wm/share_webcastEKZmZmx2BGR2AmEinSx/2018/06/11/550405533544041_0@r_750w_1000h.jpg-wq75","isLike":0,"likeUserNum":83,"shareType":1,"interest":null,"isHot":1,"preloadPic":"http://f.yhres.com/IMG_3232.png","preloadRatio":"5,7","preloadEncrypt":"a3icgYOvmY6sfHuKYmuCREdgSktiX2l/cZekfZymOkhyNzVFSGB3b5Oma36IWm+jnZ+1hX5/Q0VOYlFDcXaZl6jBfarKgnh2e2RQbXSTkZymf6C3kYN6d19KT2ukYGaBaGBnf2VXfGVP","description":"可以说是一家很不错的小咖啡屋了，玻璃门设计很新颖，提拉米苏和庄园大吉岭的搭配很不错，人均50左右，环境都很nice，我是下午四五点钟去的，没什么人，就在体育路那里，蛮私人的，不像爆款网红店chello每天都有好多人挤爆了去，我更喜欢小的馆的氛围吧。下次还会再去光临🍰➕🍵=❤️","linkTitle":"厦门 小的馆 体育路","linkSchemeUrl":"yhouse://host/23906","linkType":"0","picNum":"6张","createTime":1528712735000},"schemeUrl":"yhouse://article/1502007","title":"图文","type":91},{"data":{"id":1527453,"userId":"EKZ0ZmR0ZwZkBQSinSx","userName":"Queena","userSchemeUrl":"yhouse://user/EKZ0ZmR0ZwZkBQSinSx","showPicSmallUrl":"http://f.yhres.com/editUserHeaderImage/2017/11/24/533222140038516.png-ssq75","isVip":0,"isPublic":0,"isTalent":1,"vipTitle":null,"vipIcon":null,"vipStyle":null,"title":"魔都每日卖脱销的舒芙蕾咖啡店 想吃请赶早","coverPicUrl":"http://f.yhres.com/wm/share_webcastEKZ0ZmR0ZwZkBQSinSx/2018/07/05/552461129912770_0@r_750w_1000h.jpg-wq75","isLike":0,"likeUserNum":209,"shareType":1,"interest":null,"isHot":1,"preloadPic":"http://f.yhres.com/IMG_3241.png","preloadRatio":"5,7","preloadEncrypt":"3aJuexYNJgAAQR4SPDQy1Y5lnkE0VwAAVD85aW9v1HFfyHVlah0vWEM/f3Zx1H5juWleWDdJWk1SpZSB4n5wvmhaTzMzVUdTh4qKxHSAr2VuXktYR0pgZISfHA1ZQideRkx5M0pwUG2Y","description":"📍卡啡那\n闵行区虹井路120弄2号（W143）\n\n被Vogue杂志点名的会呼吸的舒芙蕾\n每天限定现烤出炉\n\n只需3个步骤Get最美味的舒芙蕾\n1. 先从中间向下挖一个洞 \n2. 倒入特制风味酱\n3. 搭配香浓丝滑的冰淇淋和新鲜水果\n感受冰火两重天的美妙滋味\n\nPS：每天只卖一种口味 一周都不会重样","linkTitle":null,"linkSchemeUrl":null,"linkType":"","picNum":"9张","createTime":1530768336000},"schemeUrl":"yhouse://article/1527453","title":"图文","type":91},{"data":{"id":1532726,"userId":"EKZ0AwRlAwZ3AQOinSx","userName":"Caffrey_","userSchemeUrl":"yhouse://user/EKZ0AwRlAwZ3AQOinSx","showPicSmallUrl":"http://f.yhres.com/editUserHeaderImage/2018/05/05/547203747397168.png-ssq75","isVip":0,"isPublic":1,"isTalent":1,"vipTitle":null,"vipIcon":null,"vipStyle":null,"title":"【啦啦啦～长阳特辑/01//🍓】","coverPicUrl":"http://f.yhres.com/wm/share_webcastEKZ0AwRlAwZ3AQOinSx/2018/07/12/553089744749463_0@r_750w_750h.jpg-wq75","isLike":0,"likeUserNum":80,"shareType":1,"interest":null,"isHot":1,"preloadPic":"http://f.yhres.com/IMG_3233.png","preloadRatio":"7,5","preloadEncrypt":"tbOtt7Swu7m3hY2PhJikbHZ5QGGEkpixm5++q63Ina3QqbjPobbQe5e2xtDh0NTtpanOwcPWsbnKhJSkO1yMpMTOvMXNm6i4n6WfZ3qKJ27BA1nAkqKum6azd4GIOGyrKYnvNJD9Fl/I","description":"2018.7.12/\n地址🗼：北京市房山区长阳镇\n                长阳半岛🗼\np1:池田寿司/3层\n⭐️⭐️⭐️⭐️\nps：如果可以 最好打包 然后微波炉加热～\n——————\np2/p4/p5：拿督拉茶\n地址：半岛广场附近/半岛金街/HM对面\n⭐️⭐️⭐️⭐️⭐️\n表示差不多全喝过了👌🏼\n甚至提出了出新品🤷🏽‍♀️（没办法 就是这么社会）\np4：自由国度！⭐️x5 好评 喝不腻系列～\np5：自由国度搅拌完后\n——————\np3:大通冰室/2层\n⭐️⭐️⭐️\n表示只有p4这个 百香果萃 比较喜欢\n其他的也尝过 但感觉一般般🤷🏿‍♂️\nps：它们家的奶茶是主打 但是没喝过 可以尝一尝\n——————\np6:无敌家/4层\n⭐️⭐️⭐️\n还好啦还好啦～\n也就那样啦🤷🏿‍♂️\n——————\np7:野人牧坊/2层\n⭐️⭐️⭐️⭐️⭐️\n表示…喜欢到爆炸！！！\n开心果是主打！而且巨好吃！\n不过啊～它每个口味都是有时间点的🤷🏿‍♂️\n能吃到什么味还是要看运气🤷🏿‍♂️\n！！推荐超级无敌巨好吃的开心果！\n——————\np8:皇茶/2层/和👆挨着\n请！不要错过！芝士奶盖系列！\n⭐️⭐️⭐️⭐️\n除了比较慢之外没什么小毛病啦～\n——————\np9:costa咖啡/一层/优衣库附近/挨着门\n⭐️⭐️⭐️⭐️\n整体hin好啦～\n热巧什么的真的很nice٩(˃̶͈̀௰˂̶͈́)و\n推荐热巧～\n\n2018.7.12\n过两天做02٩(˃̶͈̀௰˂̶͈́)و","linkTitle":null,"linkSchemeUrl":null,"linkType":"","picNum":"9张","createTime":1531396949000},"schemeUrl":"yhouse://article/1532726","title":"图文","type":91},{"data":{"id":1499505,"userId":"EKZ3ZQx4ZwR3AmqinSx","userName":"小奶猫💋💋","userSchemeUrl":"yhouse://user/EKZ3ZQx4ZwR3AmqinSx","showPicSmallUrl":"http://f.yhres.com/fixUserHeaderImage/2018/06/10/550291799615132.png-ssq75","isVip":0,"isPublic":0,"isTalent":0,"vipTitle":null,"vipIcon":null,"vipStyle":null,"title":"有喵陪伴的下午茶","coverPicUrl":"http://f.yhres.com/share_webcastEKZ3ZQx4ZwR3AmqinSx/2018/06/09/550224945894112_0@r_750w_1333h.jpg-wq75","isLike":0,"likeUserNum":12,"shareType":1,"interest":null,"isHot":0,"preloadPic":"http://f.yhres.com/IMG_3239.png","preloadRatio":"7,5","preloadEncrypt":"kIyDwrupnpmO7OHOs6mXuq6Kfndnw7+10sSxxLWf1MOmcnKFv7WejYVvwbq2hXt+VEIubnCEvMPapK3JiYmSAAAeAAAiAAAAl522x8PQYnrNYIDZR0VINi82YmVyq6Spq6KsTV6pUG3F","description":"心情不好的时候 来这里坐坐 瞬间感觉到非常的暖\n这里的猫咪很亲人 甜点也很好吃 一边喝着下午茶 一边撸猫 应该是很多喵控宝宝们想做的事吧\n地点在学府四道街一楼半猫咪咖啡馆","linkTitle":null,"linkSchemeUrl":null,"linkType":"","picNum":"7张","createTime":1528532151000},"schemeUrl":"yhouse://article/1499505","title":"图文","type":91},{"data":{"id":1532055,"userId":"EKZmZQDmAwH4ZGOinSx","userName":"小阿然🌴","userSchemeUrl":"yhouse://user/EKZmZQDmAwH4ZGOinSx","showPicSmallUrl":"http://f.yhres.com/userAvatar/2017/06/23/EKZmZQDmAwH4ZGOinSx_QVG4g1RT.jpg-ssq75","isVip":0,"isPublic":0,"isTalent":0,"vipTitle":null,"vipIcon":null,"vipStyle":null,"title":"【猫·咖啡馆】","coverPicUrl":"http://f.yhres.com/share_article/2018/07/12/EKZmZQDmAwH4ZGOinSx_W5dY3gfP@r_1512w_1512h-wq75","isLike":0,"likeUserNum":82,"shareType":1,"interest":null,"isHot":1,"preloadPic":"http://f.yhres.com/IMG_3230.png","preloadRatio":"5,5","preloadEncrypt":"e7axc62waaWhaHqEOkp5AFt+KlyTTnGWRHKVXHSDAABsV1WPRHWZe6OrrbOvOEBgJR9VXmeBqa++tK/BrKqls6+no6eui5O0rK24","description":"📍地址：延边朝鲜族自治州延吉市·延边大学学府服务大楼二楼（对猫毛过敏的不推荐哦~）\n💰人均消费：30RMB\n📌店内环境：干净 无异味 \n☕推荐饮品：个人偏莫吉托 独角兽也可以试一试 （咖啡很少喝 可以尝试）\n🌈饮品味道：一般很普通 略甜 不是鲜榨果汁浓缩的 可以点少糖的 饮品类不是很推荐（基本去的都是看猫咪啦~）\n                ―――画风突变分割线―――\n🐱：当然啦o(≧v≦)o 猫主题咖啡馆最重要的还是主子们了 本人很喜欢宠物 觉得猫是一个很优雅的动物 她们家一共有9-12只猫 性格都特别的温顺 喜欢让人撸~ p1那只是大佬！ p6特别爱睡觉撒娇 特别喜欢趴在人身上睡觉 p9有一个超可爱的中分 p4最淘气 （个人建议来看它们不要穿裙子👗）不要问我为什么:)进门需要用免洗消毒液消毒 换拖鞋哦~工作人员也会把猫咪放在你的怀里让你抱着哈哈~大猫最近还生了很多的小猫咪 没有办法都放在上面~ 喜欢的就来延吉这个少数民族来玩吧~ 想知道更多攻略可以关注我✨\n\n\n                                                 ― 2018.07.12","linkTitle":null,"linkSchemeUrl":null,"linkType":"","picNum":"9张","createTime":1531382954000},"schemeUrl":"yhouse://article/1532055","title":"图文","type":91},{"data":{"id":1527468,"userId":"EKZ1ZQZ4AGD5ZGSinSx","userName":"_ 虎牙妹😘","userSchemeUrl":"yhouse://user/EKZ1ZQZ4AGD5ZGSinSx","showPicSmallUrl":"http://f.yhres.com/editUserHeaderImage/2017/12/21/535483125165842.png-ssq75","isVip":0,"isPublic":1,"isTalent":1,"vipTitle":null,"vipIcon":null,"vipStyle":null,"title":"喝个豪华下午茶 猫屎咖啡","coverPicUrl":"http://f.yhres.com/wm/share_webcastEKZ1ZQZ4AGD5ZGSinSx/2018/07/05/552462427005417_0@r_750w_750h.jpg-wq75","isLike":0,"likeUserNum":91,"shareType":1,"interest":null,"isHot":1,"preloadPic":"http://f.yhres.com/IMG_3246.png","preloadRatio":"7,5","preloadEncrypt":"inFFvquTv6ydxLGcrZySqpqOlYRrbVYagX2Kbpi6laiui6ezs9/mYWddwsTEtb7Jfau8WKnTg8HYpOfrwM/UpaKfgZijS53RQpnRYrjjYZWpq6upAAAAAEZpMYG1M2KIMGaWGWCKAAAA","description":"第一次听说猫屎咖啡，真的是孤陋寡闻了，但又不敢去问大家。就只有搜搜百度来看，再了解了猫屎咖啡后，蠢蠢欲动的我已经迫不及待去尝尝这个在我看来新鲜的东西。\n猫屎咖啡位于T11最明显的街区口，一眼就能看见。坐在落地窗户下，夕阳照射进来后，享受着猫屎咖啡带来的独特，真的很不错。\n猫屎咖啡的味道独特，格外浓稠香醇，店里也摆放有卖的猫屎咖啡的礼盒，店里别的饮品也还不错，除了喝猫屎咖啡以为，也有很多可供选择。","linkTitle":null,"linkSchemeUrl":null,"linkType":"","picNum":"9张","createTime":1530769634000},"schemeUrl":"yhouse://article/1527468","title":"图文","type":91},{"data":{"id":1532751,"userId":"EKZlAGpkZwN0ZmOinSx","userName":"行走的二次元","userSchemeUrl":"yhouse://user/EKZlAGpkZwN0ZmOinSx","showPicSmallUrl":"http://f.yhres.com/editUserHeaderImage/2016/10/26/499156766886307.png-ssq75","isVip":0,"isPublic":0,"isTalent":1,"vipTitle":null,"vipIcon":null,"vipStyle":null,"title":"韩国🇰🇷釜山的 特色咖啡店不看后悔 看了不去更后悔😄","coverPicUrl":"http://f.yhres.com/share_webcastEKZlAGpkZwN0ZmOinSx/2018/07/12/553089936413543_0@r_750w_998h.jpg-wq75","isLike":0,"likeUserNum":145,"shareType":1,"interest":null,"isHot":1,"preloadPic":"http://f.yhres.com/IMG_3244.png","preloadRatio":"5,5","preloadEncrypt":"urqHtbyrscHQrquTtXsAsrSXxcvG2Nrb4+Deuodrv76p3N7nwsjhwMTgpp6VvbuXyMbJtrzVvb3Gl5ZvkJJfoZ9yn5+KqaiCn5pa","description":"这是釜山一间略带低奢气，却更不失冷淡风的咖啡馆，大胆的撞色与空间的无限畅想使得你根本无法预知一个眼镜品牌竟如此将店面包装的出味出色…地上地下外加阁楼及庭院五层的建筑，无不透着品牌与设计师的独趣独道…割舍不下的每个角落让我很难取舍九图位置的摆放…好吧，这里只是TA的冰山一角，我愿连载一篇 开心 畅快☕️ 行走的二次元","linkTitle":null,"linkSchemeUrl":null,"linkType":"","picNum":"9张","createTime":1531397175000},"schemeUrl":"yhouse://article/1532751","title":"图文","type":91},{"data":{"id":1502163,"userId":"EKZ3ZGZ0BGL3ZmIinSx","userName":"胖胖的夜宵君","userSchemeUrl":"yhouse://user/EKZ3ZGZ0BGL3ZmIinSx","showPicSmallUrl":"http://f.yhres.com/user_photo/2018/06/09/1528535581596973-ssq75","isVip":0,"isPublic":0,"isTalent":1,"vipTitle":null,"vipIcon":null,"vipStyle":null,"title":"#夜宵君探店#老城区炭火牛蛙铜锅","coverPicUrl":"http://f.yhres.com/wm/share_article/2018/06/11/EKZ3ZGZ0BGL3ZmIinSx_WUU2jjUM@r_1000w_2250h-wq75","isLike":0,"likeUserNum":62,"shareType":1,"interest":null,"isHot":1,"preloadPic":"http://f.yhres.com/IMG_3235.png","preloadRatio":"5,7","preloadEncrypt":"bnmEj52noauxbHJ5dHqFc3uIi52pl6exeHuBcXmGb3mFUV5jbXN2goqUfIaSoaOnAAAAWWRimKu3nKauur3Ea3d+bHZ8naqznaaurrS/kKOviJiieoCKfIaTn6i1na24naiwa3N+c32K","description":"夜宵君探店 这一路上吃吃喝喝顺着少年长胖的痕迹。都说一口吃不出个胖子来，瞧我幸幸苦苦养这一身膘容易嘛我？这得吃多少口啊！减肥是不可能减肥的，这辈子都不可能！\n\n可以做到一月之内让我连续宠幸三次体重暴涨五斤的店估计只有老城区炭火牛蛙铜锅了吧！独胖胖不如众胖胖，必须po出来荼毒一下大家，然后和我一样一胖不可收拾。[奸笑]\n\n没想到这家一夜之间引爆北上广的新进网红店这么快就开到了南昌。谁说我们南昌落后啦！！！替我打洗ta～我的夏天原本只有三大信仰烧烤啤酒小龙虾，此刻却硬生生蹦出个蛙鹅子c位抢镜出道撼动小龙虾在我心目中地位！过分！[再见]\n\n好姐妹马儿的那段每一个饥饿的夜晚都在吃幻想。如果说小龙虾是蚊帐上的蚊子血，那么牛蛙就是心中的白月光。话实在是过于文艺精妙，早已超出了我的语文能力范畴，我还是选择直接用八级大白话阐明一切的好！[白眼][白眼][白眼]\n\n铜锅牛蛙 单层128💰 双层208💰\n三种口味都有尝过，非常来事。牛蛙个头很大，份量充足，一锅大概有四五斤的量，两到三个人的话一口锅完全足够。牛蛙肉质Q弹鲜嫩，配菜种类繁多，特别喜欢饱含汤汁的千张豆皮之类的东西，吃着黯然销魂！[嘿哈]\n\n特别推荐招牌麻辣铜锅牛蛙★★★★★\n鲜香麻辣，牛蛙越煮越嫩，越吃越有味，等到后面大火把汤汁收干，原本煎炸过的牛蛙会显得更加焦香，调料的附着力也很强。[转圈]\n\n酸汤泡椒牛蛙★★★★\n适合口味相对清淡，适合流行佛系养生的90后以及确实年纪比较大的中老年人！[偷笑][偷笑][偷笑]\n\n十三香铜锅牛蛙★★★☆\n个人建议点双层锅的时候不要和麻辣口味的同时点，其实口感上二者其实差不多，口味上又没有麻辣锅那么浓烈，如果先吃麻辣口的再去吃十三香的话味道容易被盖掉。[尴尬]\n\n糖醋小小排 19💰 ★★★★\n简单粗暴四个字：酥到掉渣。色泽红亮看着就很有食欲。[色]\n\n捞汁花甲 28💰 ★★★★☆\n跟其他地方花甲与众不同的是，平日里吃到的花甲普遍都是那种用红油铺底的重口味，老城区的花甲则是清新脱俗里透出一点倔强。刚入口时会觉得比较清淡，越吃到后面会发现吃出了一股麻香，越吃越上瘾。而且花甲处理的很干净，个头很肥美！[得意]\n\n糖甩甩 16💰★★★★\n口感香甜软糯，裹上一层厚厚的黄豆粉，敲好吃！😋 \n\n天然曲米冰粉 8💰★★★☆\n光从颜值上来看就秒杀一切资质平庸的冰粉！不需要葡萄干和山楂碎做点缀依旧可以让其他冰粉无颜色，因为他当红不让！玲珑剔透里闪烁着的红是曲米燃尽生命后流淌出的血液。炼乳的甜份让她更加肆无忌惮的花枝招展了起来。不过甜的确实有点嚣张啦！[衰]\n\n蜜卤鹌鹑 8💰/只 ★★★★\n傻乎乎的一人点了一只！结果上来一大盘，个头都很大一只，真的吃不下。建议可以两个人点一只尝一尝，肉质还挺紧实的，很入味哦！[爱心]\n\n老城肠结 16💰★★★★☆\n能让我为之疯狂爆灯吃完意犹未尽的肠结有两家，一家是味福记，另一家就是老城区。确实有老南昌街头巷尾的味道！[亲亲]\n\n百香果无骨凤爪 18💰★★★\n小小的diss一下。凤爪酸有余而辣不足，百香果的香气没有被激发出来，感觉像是毫无存在感的摆设。[捂脸]\n\n南昌炒粉 12💰★★★☆\n中规中矩吧！炒粉的话还是比较推荐又一家的一粉入魂。听说南昌最近还新开了一家最南昌炒粉，有空去尝尝！[耶]\n\n总体来说这家网红牛蛙店可以给到四星半，光冲这口味，从开业到现在不足一个月我就去了将近三四次。人气确实挺旺，唯一一点就是服务有点更不上，服务生不属于完全主动的状态，还需要加强培训啊哈哈！哦，对了，补充一句，吃着牛蛙喝着冰阔落，和有趣的人围成一桌，真的比神仙还逍遥！\n\n地址：百盛后街大顺巷民德路337号▼","linkTitle":"上海 老城区炭火蛙锅 万体馆","linkSchemeUrl":"yhouse://host/219408","linkType":"0","picNum":"9张","createTime":1528720564000},"schemeUrl":"yhouse://article/1502163","title":"图文","type":91},{"data":{"id":1532080,"userId":"EKZ1ZGZjBGD3BQIinSx","userName":"枫","userSchemeUrl":"yhouse://user/EKZ1ZGZjBGD3BQIinSx","showPicSmallUrl":"http://f.yhres.com/fixUserHeaderImage/2017/11/03/531380434311331.png-ssq75","isVip":0,"isPublic":0,"isTalent":1,"vipTitle":null,"vipIcon":null,"vipStyle":null,"title":"在候车室读书的捷克女孩","coverPicUrl":"http://f.yhres.com/wm/share_webcastEKZ1ZGZjBGD3BQIinSx/2018/07/12/553076622524374_0@r_750w_750h.jpg-wq75","isLike":0,"likeUserNum":39,"shareType":1,"interest":null,"isHot":0,"preloadPic":"http://f.yhres.com/IMG_3240.png","preloadRatio":"7,5","preloadEncrypt":"Oi5CV09aTklQY2iCk5vGaFWPWThpV2OIY2yVSkt1ZGV+jpikRyc9W09mP0ByYWmsVV6oUlefW1qSUT5sU0hpKSFbRj2HU0iLWU6GWFaYTkiKSD+QLRw4NiA4NyA4NixrNTV2VleOSkmE","description":"阅读 扔下没喝完的咖啡，用三分钟时间跑到火车站跳上一班开往Českeé Budëjovice的火车。一路和村里每一条小狗打了招呼。  ​​​","linkTitle":null,"linkSchemeUrl":null,"linkType":"","picNum":null,"createTime":1531383831000},"schemeUrl":"yhouse://article/1532080","title":"图文","type":91},{"data":{"id":1527473,"userId":"EKZ3Zwt2BGR3ZwMinSx","userName":"Halooo__","userSchemeUrl":"yhouse://user/EKZ3Zwt2BGR3ZwMinSx","showPicSmallUrl":"http://f.yhres.com/fixUserHeaderImage/2018/06/26/551682213681512.png-ssq75","isVip":0,"isPublic":0,"isTalent":1,"vipTitle":null,"vipIcon":null,"vipStyle":null,"title":"这家泰料店有露台，有花园还有下午茶！","coverPicUrl":"http://f.yhres.com/share_webcastEKZ3Zwt2BGR3ZwMinSx/2018/07/05/552462752966280_0@r_1083w_1080h.jpg-wq75","isLike":0,"likeUserNum":63,"shareType":1,"interest":null,"isHot":1,"preloadPic":"http://f.yhres.com/IMG_3238.png","preloadRatio":"5,6","preloadEncrypt":"nlQbnVMbnVQYn1QAyqaWyINIxoJIxoNJyYlP3Lej16R4055q06N60KSF0bOgiXVTlYFjmohjqZt5pJ2PdGpRxr+xw8Gmz9Wgsr+mfXZYzsiv0M26sLmvj56T","description":"上周日又去二刷了这家泰料店，坐落于湖南路小洋房中，装修充满异域风情，环境真的没话说！二楼有个露台，绝对是劈情操圣地呀。\n\n泰式四拼 | 虾饼、鱼饼、串串和春卷，最爱虾饼和鱼饼，超级Q弹，敲喜欢酱料，酸辣爽口，和油炸食物非常般配。\n\n泰皇咖喱炒蟹 | 金灿灿的一大盘光看颜色就知道有多诱人了！是店内招牌～蟹肉相当饱满，蟹黄敲多！\n\n青咖喱牛肉 | 青咖喱是下饭神器了，牛腩很大块，一口咖喱一口饭，幸福感爆表啦！\n\n香芋奶冻 | 感觉是把芋头打成泥和奶冻混合在一起的，口感沙沙的，奶香味加上微微的香芋味，一口一口会上瘾！\n\n表白泰式奶茶，吼吼喝！","linkTitle":"上海 藏珑泰极(田子坊) 打浦桥","linkSchemeUrl":"yhouse://host/48895","linkType":"0","picNum":"9张","createTime":1530769954000},"schemeUrl":"yhouse://article/1527473","title":"图文","type":91},{"data":{"id":1502355,"userId":"EKZ0AwtmZGL5BQyinSx","userName":"Bee酱吃成都","userSchemeUrl":"yhouse://user/EKZ0AwtmZGL5BQyinSx","showPicSmallUrl":"http://f.yhres.com/editUserHeaderImage/2018/06/11/550342915086836.png-ssq75","isVip":1,"isPublic":1,"isTalent":1,"vipTitle":null,"vipIcon":null,"vipStyle":null,"title":"回忆中的麻辣烫","coverPicUrl":"http://f.yhres.com/wm/share_webcastEKZ0AwtmZGL5BQyinSx/2018/06/11/550422669380748_0@r_750w_1125h.jpg-wq75","isLike":0,"likeUserNum":90,"shareType":1,"interest":null,"isHot":1,"preloadPic":"http://f.yhres.com/IMG_3236.png","preloadRatio":"7,5","preloadEncrypt":"p7rRfqjWS5fJQZrMR5LHmtPxnt35oNn4eMPlRKDHHn2vA1+Yc5XEiLLXl8G5od7tk9fxK0RsAABEPkqTUFGol8bVnuP5o+r/b6vFKTF/fYzCjpLSaoXBgrXbh8LcX6zLl7PYl5rZjpvX","description":"专门挑这个时间发，班花麻辣烫，甘妹儿的心点，就开在冷占占旁边，奎星一个正在崛起的网红店。\n小时候吃的锑锅麻辣烫，拿菜都是篓篓，还有以前的铁皮饭盒。兔腰是必须点的，一般上柜很快就被清空，最好守到拿哈哈哈！\n小菜系列，火锅粉土豆脑花都有，我简直爱死他们家小土豆了！外皮焦脆，料给的很足。吃完我还偷偷追加了一份。emmm…","linkTitle":null,"linkSchemeUrl":null,"linkType":"","picNum":"9张","createTime":1528729890000},"schemeUrl":"yhouse://article/1502355","title":"图文","type":91},{"data":{"id":1499634,"userId":"EKZ0AGx5AQV0BQAinSx","userName":"辛陨御的生活方式","userSchemeUrl":"yhouse://user/EKZ0AGx5AQV0BQAinSx","showPicSmallUrl":"http://f.yhres.com/userAvatar/2017/08/29/EKZ0AGx5AQV0BQAinSx_BR15wAJv4.jpg-ssq75","isVip":0,"isPublic":1,"isTalent":1,"vipTitle":null,"vipIcon":null,"vipStyle":null,"title":"【吖茶，呀！茶~】","coverPicUrl":"http://f.yhres.com/share_article/2018/06/09/EKZ0AGx5AQV0BQAinSx_p65O4ktm@r_1040w_585h-wq75","isLike":0,"likeUserNum":87,"shareType":1,"interest":null,"isHot":1,"preloadPic":"http://f.yhres.com/IMG_3234.png","preloadRatio":"7,5","preloadEncrypt":"3eDlh4eHjIqGj42IhYSD3eDn7fD12NrjY11UgXhlhn5rV1BB2dzk8fP54OPqrLXAp7K7rLa/q7a/3uLr6+z14ubszdLb2uDpytPc5erz6+327O72qra/lqKqqrW9qLW7xM7UzNfgyNPd","description":"【吖茶，呀！茶~】\n店铺名称：吖茶\n店铺地址：万达东市外围3-16号\n人均消费：20元/人\n东市刚开没多久，我过来看看有没有骏马，好吧，这是玩笑话。目前东市这边还不太完善，很多店家还在装修中，预想过阵子会很热闹。兜兜转转了好几圈，最后走进了这家小店。\n位于东市外围，就在大牌坊旁边，挨着华晟山城。一楼**糕点和面包，是个烘焙坊，也卖奶茶和冷饮，适合下午茶。\n环境：一楼很清新，白墙，多肉，只是没有卡座。上到二楼，空间不小，不过装潢有点杂，粉嫩少女心的网红豹，森系的绿墙，六棱形的蜂窝墙又有点后现代，对面呼应一面红绿复古风的沙发墙，天蓬上还挂着不少装饰油画。这样设计应该很方便小姐姐们过来拍照，但是混搭的装修风格稍微有点偏离了我的审美。\n饮品：刚吃了午餐，没尝试面包和糕点。点了金桔柠檬和布蕾蛋糕奶茶。金桔柠檬口味不错，酸甜比例均衡，出品不错。布蕾蛋糕奶茶发挥的也不错，奶茶不会太甜，蛋糕底打制的很顺滑，很喜欢。\n总结发言：饮品不错，环境适合拍照，值得尝试。有饮品团购，很合算。","linkTitle":null,"linkSchemeUrl":null,"linkType":"","picNum":"9张","createTime":1528537819000},"schemeUrl":"yhouse://article/1499634","title":"图文","type":91},{"data":{"id":1532791,"userId":"EKZ2AGZ5AQZ3BQOinSx","userName":"我爱弥小宝","userSchemeUrl":"yhouse://user/EKZ2AGZ5AQZ3BQOinSx","showPicSmallUrl":"http://f.yhres.com/editUserHeaderImage/2018/04/09/544975557824102.png-ssq75","isVip":0,"isPublic":0,"isTalent":0,"vipTitle":null,"vipIcon":null,"vipStyle":null,"title":"陆家嘴东方明珠闹中取静的咖啡馆","coverPicUrl":"http://f.yhres.com/share_webcastEKZ2AGZ5AQZ3BQOinSx/2018/07/12/553090360840919_0@r_750w_999h.jpg-wq75","isLike":0,"likeUserNum":31,"shareType":1,"interest":null,"isHot":1,"preloadPic":"http://f.yhres.com/IMG_3231.png","preloadRatio":"7,5","preloadEncrypt":"iZevYWNTf3p5f4KEb2lygoiuOj5LcIeQWniGjazGibbVW3WSiJq/k5+lY4KsRm+wcpWzZIuqT2eLfqDFfZuxa4anUHCRAEp6ADp0G0l4NFeOU3aUrLq2uMK+p7a6iaCwg5efe4yOg5ib","description":"仿佛是一处世外桃源 外边全部是人 走入这扇咖啡店的门 一切都安静了 一杯咖啡一本书可以坐一天了","linkTitle":null,"linkSchemeUrl":null,"linkType":"","picNum":"9张","createTime":1531397563000},"schemeUrl":"yhouse://article/1532791","title":"图文","type":91},{"data":{"id":1532108,"userId":"EKZ1ZGL4ZQVlZmOinSx","userName":"fifirowena","userSchemeUrl":"yhouse://user/EKZ1ZGL4ZQVlZmOinSx","showPicSmallUrl":"http://f.yhres.com/fixUserHeaderImage/2017/12/26/535955217946632.png-ssq75","isVip":0,"isPublic":0,"isTalent":1,"vipTitle":null,"vipIcon":null,"vipStyle":null,"title":"☕️清迈探店 || No.39","coverPicUrl":"http://f.yhres.com/share_webcastEKZ1ZGL4ZQVlZmOinSx/2018/07/12/553079249655052_0@r_750w_750h.jpg-wq75","isLike":0,"likeUserNum":91,"shareType":1,"interest":null,"isHot":1,"preloadPic":"http://f.yhres.com/IMG_3247.png","preloadRatio":"5,7","preloadEncrypt":"6NrY5trX597e5uPl5OXo6t/axsXAmKC2qq7Du7/LqrSklqKYfISSkZm0vcHMYG5jbHlvdXx9bHWOaHKSSUtHREZOTlRabXd/TVZmQkNBSlJcWWtedot2dIR4hIqOgIiTa3qFTV9TX21T","description":"清迈真的是到处都是文艺的咖啡店，到处走走随意进一家咖啡店都会有惊喜。\n\n⚪️这家No.39一直在我的list上，我们住在清迈的宁曼路上，打车过去大约20分钟的车程，在清迈大学附近。\n⚪️这家店藏的很好，车子绕进类似小村庄里才出现。\n\n▫️门很小，进去之后就有一种世外桃源的感觉。中间有一个人工湖，绕着湖有很多小摆设（也可以说建筑）。\n▫️有树屋、旧车、阳光房、露天休息台.......每个地方都很适合拍照。\n\n🔻吃的还不错，有饮料和甜点，人均20-40rmb左右。\n🔻不过到这儿基本还是为了拍照啦，环境好于口味。\n\n\n🔶天气好的时候来这儿放放空，听听鸟叫再好不过了。\n\n🔴拍照tips：\n穿的衣服最好颜色亮一些，但是花纹少一些。（比如纯色的橘色、白色这样）\n防蚊虫叮咬的药膏准备好。","linkTitle":null,"linkSchemeUrl":null,"linkType":"","picNum":"9张","createTime":1531386468000},"schemeUrl":"yhouse://article/1532108","title":"图文","type":91}],"isEnd":0,"nextPage":2,"page":1,"pageSize":20,"pid":"1532238,1497993,1501825,1531857,1532037,1499112,1502007,1527453,1532726,1499505,1532055,1527468,1532751,1502163,1532080,1527473,1502355,1499634,1532791,1532108","totalRows":5000},"detail":"","message":"success"}