{"code":"0","data":{"doc":[{"itemData":[{"address":"工体西路6号B1层","businessesDistrict":"三里屯","categoryId":2,"cityId":1,"commentTags":null,"cuisineStyle":"酒吧","discountDesc":null,"discountIconUrl":null,"distance":"","highLigth":"精酿啤酒爱好者的聚集地","hostName":"Republic啤酒共和国","id":219096,"isHaveEquities":0,"isInterested":0,"isJoinRedPacket":0,"latitude":"39.929428","linkUrl":"yhouse://host/219096?categoryId=2","logoUrl":"http://p.yhres.com/hostInfo/2018/02/01/1517420899800389.jpg-ssq75","longitude":"116.444271","packageDesc":null,"packageIconUrl":null,"picUrl":"http://p.yhres.com/hostInfo/2018/02/01/1517421088176167.jpg-q75h","price":94,"priceStr":"人均: 94元","publicityWord":"","recommendDesc":null,"recommendSubHead":null,"recommendTitle":null,"specialty":null,"tagArr":[],"tagArrDesc":null,"title":"Republic啤酒共和国","vipEqsTag":""},{"address":"东大桥路8号SOHO尚都西塔负一层B117","businessesDistrict":"朝外大街","categoryId":2,"cityId":1,"commentTags":null,"cuisineStyle":"酒吧","discountDesc":null,"discountIconUrl":null,"distance":"","highLigth":"拥有国内顶级机器 打造别样口感","hostName":"鲨叔精酿","id":219092,"isHaveEquities":0,"isInterested":0,"isJoinRedPacket":0,"latitude":"39.918801","linkUrl":"yhouse://host/219092?categoryId=2","logoUrl":"http://p.yhres.com/hostInfo/2018/02/01/1517417078372704.png-ssq75","longitude":"116.451735","packageDesc":null,"packageIconUrl":null,"picUrl":"http://p.yhres.com/hostInfo/2018/02/01/1517417279026956.png-q75h","price":83,"priceStr":"人均: 83元","publicityWord":"","recommendDesc":null,"recommendSubHead":null,"recommendTitle":null,"specialty":null,"tagArr":[],"tagArrDesc":null,"title":"鲨叔精酿","vipEqsTag":""},{"address":"青年路29号院3号楼底商102号(青年路首航超市向西20米)","businessesDistrict":"青年路","categoryId":2,"cityId":1,"commentTags":null,"cuisineStyle":"酒吧","discountDesc":null,"discountIconUrl":null,"distance":"","highLigth":"源自波利尼西亚文化的Tiki风格酒吧","hostName":"Bora Bora","id":217211,"isHaveEquities":0,"isInterested":0,"isJoinRedPacket":0,"latitude":"39.931035","linkUrl":"yhouse://host/217211?categoryId=2","logoUrl":"http://p.yhres.com/hostInfo/2017/12/18/1513587243874109.jpg-ssq75","longitude":"116.515165","packageDesc":null,"packageIconUrl":null,"picUrl":"http://p.yhres.com/hostInfo/2017/12/18/1513588617639509.jpg-q75h","price":75,"priceStr":"人均: 75元","publicityWord":"","recommendDesc":null,"recommendSubHead":null,"recommendTitle":null,"specialty":null,"tagArr":[],"tagArrDesc":null,"title":"Bora Bora","vipEqsTag":""},{"address":"工体北路4号院81号楼","businessesDistrict":"三里屯","categoryId":2,"cityId":1,"commentTags":null,"cuisineStyle":"酒吧","discountDesc":null,"discountIconUrl":null,"distance":"","highLigth":"地处三里屯的live house","hostName":"乐Live Lounge","id":212041,"isHaveEquities":0,"isInterested":0,"isJoinRedPacket":0,"latitude":"39.932091","linkUrl":"yhouse://host/212041?categoryId=2","logoUrl":"http://p.yhres.com/hostInfo/2017/10/08/1507449514964186.jpg-ssq75","longitude":"116.456373","packageDesc":null,"packageIconUrl":null,"picUrl":"http://p.yhres.com/hostInfo/2017/10/08/1507473766437509.jpg-q75h","price":120,"priceStr":"人均: 120元","publicityWord":"","recommendDesc":null,"recommendSubHead":null,"recommendTitle":null,"specialty":null,"tagArr":[],"tagArrDesc":null,"title":"乐Live Lounge","vipEqsTag":""},{"address":"三里屯东三街4号","businessesDistrict":"三里屯","categoryId":2,"cityId":1,"commentTags":null,"cuisineStyle":"酒吧","discountDesc":null,"discountIconUrl":null,"distance":"","highLigth":"三里屯深处的英式格调酒吧","hostName":"Night & Nice Bar","id":176081,"isHaveEquities":0,"isInterested":0,"isJoinRedPacket":0,"latitude":"39.93775","linkUrl":"yhouse://host/176081?categoryId=2","logoUrl":"http://p.yhres.com/hostInfo/2017/10/17/1508234203643738.jpg-ssq75","longitude":"116.46032","packageDesc":null,"packageIconUrl":null,"picUrl":"http://p.yhres.com/hostInfo/2017/10/17/1508234527760212.jpg-q75h","price":130,"priceStr":"人均: 130元","publicityWord":"","recommendDesc":null,"recommendSubHead":null,"recommendTitle":null,"specialty":null,"tagArr":[],"tagArrDesc":null,"title":"Night & Nice Bar","vipEqsTag":""},{"address":"团结湖北路2号","businessesDistrict":"朝阳公园/团结湖","categoryId":2,"cityId":1,"commentTags":null,"cuisineStyle":"酒吧","discountDesc":null,"discountIconUrl":null,"distance":"","highLigth":"闹市中的小居酒屋","hostName":"静·居酒屋","id":211953,"isHaveEquities":0,"isInterested":0,"isJoinRedPacket":0,"latitude":"39.931637","linkUrl":"yhouse://host/211953?categoryId=2","logoUrl":"http://p.yhres.com/hostInfo/2017/10/08/1507392566126379.jpg-ssq75","longitude":"116.462304","packageDesc":null,"packageIconUrl":null,"picUrl":"http://p.yhres.com/hostInfo/2017/10/08/1507393512235304.jpg-q75h","price":142,"priceStr":"人均: 142元","publicityWord":"","recommendDesc":null,"recommendSubHead":null,"recommendTitle":null,"specialty":null,"tagArr":[],"tagArrDesc":null,"title":"静·居酒屋","vipEqsTag":""},{"address":"物资学院地铁站A口向西300米(天天公寓底商1层)","businessesDistrict":"物资学院","categoryId":2,"cityId":1,"commentTags":null,"cuisineStyle":"酒吧","discountDesc":null,"discountIconUrl":null,"distance":"","highLigth":"北京通州地区喝啤酒的绝佳之地","hostName":"牛头梗啤酒(物资学院店)","id":211921,"isHaveEquities":0,"isInterested":0,"isJoinRedPacket":0,"latitude":"39.927841","linkUrl":"yhouse://host/211921?categoryId=2","logoUrl":"http://p.yhres.com/hostInfo/2017/10/07/1507384056012318.jpg-ssq75","longitude":"116.635366","packageDesc":null,"packageIconUrl":null,"picUrl":"http://p.yhres.com/hostInfo/2017/10/07/1507387276556693.jpg-q75h","price":70,"priceStr":"人均: 70元","publicityWord":"","recommendDesc":null,"recommendSubHead":null,"recommendTitle":null,"specialty":null,"tagArr":[],"tagArrDesc":null,"title":"牛头梗啤酒(物资学院店)","vipEqsTag":""},{"address":"车站路57-5号","businessesDistrict":"密云沙河","categoryId":2,"cityId":1,"commentTags":null,"cuisineStyle":"酒吧","discountDesc":null,"discountIconUrl":null,"distance":"","highLigth":"隐藏在密云区的小众啤酒bar","hostName":"暴狗精酿酒吧","id":211363,"isHaveEquities":0,"isInterested":0,"isJoinRedPacket":0,"latitude":"40.39005","linkUrl":"yhouse://host/211363?categoryId=2","logoUrl":"http://p.yhres.com/hostInfo/2017/10/03/1507000259197649.png-ssq75","longitude":"116.855216","packageDesc":null,"packageIconUrl":null,"picUrl":"http://p.yhres.com/hostInfo/2017/10/03/1507002332171858.jpg-q75h","price":80,"priceStr":"人均: 80元","publicityWord":"","recommendDesc":null,"recommendSubHead":null,"recommendTitle":null,"specialty":null,"tagArr":[],"tagArrDesc":null,"title":"暴狗精酿酒吧","vipEqsTag":""},{"address":"古北口镇司马台村","businessesDistrict":"密云鼓楼","categoryId":2,"cityId":1,"commentTags":null,"cuisineStyle":"酒吧","discountDesc":null,"discountIconUrl":null,"distance":"","highLigth":"司马台长城的山脚下的小资酒吧","hostName":"倾城似水酒吧","id":174302,"isHaveEquities":0,"isInterested":0,"isJoinRedPacket":0,"latitude":"40.654366","linkUrl":"yhouse://host/174302?categoryId=2","logoUrl":"http://p.yhres.com/hostInfo/2017/10/02/1506954247091925.png-ssq75","longitude":"117.278876","packageDesc":null,"packageIconUrl":null,"picUrl":"http://p.yhres.com/hostInfo/2017/10/03/1506960187535774.jpg-q75h","price":82,"priceStr":"人均: 82元","publicityWord":"","recommendDesc":null,"recommendSubHead":null,"recommendTitle":null,"specialty":null,"tagArr":[],"tagArrDesc":null,"title":"倾城似水酒吧","vipEqsTag":""},{"address":"北环西路林肯公园c区30号楼地下105号","businessesDistrict":"亦庄","categoryId":2,"cityId":1,"commentTags":null,"cuisineStyle":"酒吧","discountDesc":null,"discountIconUrl":null,"distance":"","highLigth":"工业风酒吧 主打自精酿啤酒","hostName":"滚滚精酿","id":174151,"isHaveEquities":0,"isInterested":0,"isJoinRedPacket":0,"latitude":"39.803032","linkUrl":"yhouse://host/174151?categoryId=2","logoUrl":"http://p.yhres.com/hostInfo/2017/10/02/1506952407320186.png-ssq75","longitude":"116.491898","packageDesc":null,"packageIconUrl":null,"picUrl":"http://p.yhres.com/hostInfo/2017/10/02/1506953907779077.jpg-q75h","price":72,"priceStr":"人均: 72元","publicityWord":"","recommendDesc":null,"recommendSubHead":null,"recommendTitle":null,"specialty":null,"tagArr":[],"tagArrDesc":null,"title":"滚滚精酿","vipEqsTag":""}],"itemLayout":3,"itemType":7}],"extraData":{"rocket":null,"hostSearchSchemeUrl":"yhouse://search?bizType=2&catalog=33&filter=33&cx=37&title=%e9%85%92%e5%90%a7%e7%ad%9b%e9%80%89&cityId=1"},"isEnd":0,"nextPage":3,"page":2,"pageSize":10,"pid":"219096,219092,217211,212041,176081,211953,211921,211363,174302,174151","totalRows":274},"detail":"","message":"success"}