{"code":"0","data":{"doc":[{"itemData":[{"address":"古北水镇月老祠旁","businessesDistrict":"密云鼓楼","categoryId":2,"cityId":1,"commentTags":null,"cuisineStyle":"酒吧","discountDesc":null,"discountIconUrl":null,"distance":"","highLigth":"美景与美食并存的小镇酒吧","hostName":"大堡酒吧","id":61728,"isHaveEquities":0,"isInterested":0,"isJoinRedPacket":0,"latitude":"40.649547","linkUrl":"yhouse://host/61728?categoryId=2","logoUrl":"http://p.yhres.com/hostInfo/2017/09/29/1506660141057387.png-ssq75","longitude":"117.27418","packageDesc":null,"packageIconUrl":null,"picUrl":"http://p.yhres.com/hostInfo/2017/09/29/1506661061675157.png-q75h","price":76,"priceStr":"人均: 76元","publicityWord":"","recommendDesc":null,"recommendSubHead":null,"recommendTitle":null,"specialty":null,"tagArr":[],"tagArrDesc":null,"title":"大堡酒吧","vipEqsTag":""},{"address":"古北水镇英华桥旁","businessesDistrict":"密云鼓楼","categoryId":2,"cityId":1,"commentTags":null,"cuisineStyle":"酒吧","discountDesc":null,"discountIconUrl":null,"distance":"","highLigth":"妙如莲花的简餐酒吧","hostName":"步步莲花酒吧","id":91407,"isHaveEquities":0,"isInterested":0,"isJoinRedPacket":0,"latitude":"40.649931","linkUrl":"yhouse://host/91407?categoryId=2","logoUrl":"http://p.yhres.com/hostInfo/2017/09/29/1506661722509536.png-ssq75","longitude":"117.274372","packageDesc":null,"packageIconUrl":null,"picUrl":"http://p.yhres.com/hostInfo/2017/09/29/1506662532409208.png-q75h","price":68,"priceStr":"人均: 68元","publicityWord":"","recommendDesc":null,"recommendSubHead":null,"recommendTitle":null,"specialty":null,"tagArr":[],"tagArrDesc":null,"title":"步步莲花酒吧","vipEqsTag":""},{"address":"北苑一路1号院四号楼1层105(万达广场7号门往南100米)","businessesDistrict":"新华大街","categoryId":2,"cityId":1,"commentTags":null,"cuisineStyle":"酒吧","discountDesc":null,"discountIconUrl":null,"distance":"","highLigth":"特调鸡尾酒种类繁多 自酿啤酒味道独特","hostName":"蜗牛酒窝","id":210865,"isHaveEquities":0,"isInterested":0,"isJoinRedPacket":0,"latitude":"39.905066","linkUrl":"yhouse://host/210865?categoryId=2","logoUrl":"http://p.yhres.com/hostInfo/2017/09/29/1506689220657290.jpg-ssq75","longitude":"116.641866","packageDesc":null,"packageIconUrl":null,"picUrl":"http://p.yhres.com/hostInfo/2017/09/30/1506701133682281.jpg-q75h","price":100,"priceStr":"人均: 100元","publicityWord":"","recommendDesc":null,"recommendSubHead":null,"recommendTitle":null,"specialty":null,"tagArr":[],"tagArrDesc":null,"title":"蜗牛酒窝","vipEqsTag":""},{"address":"工体北路4号机电院内","businessesDistrict":"三里屯","categoryId":2,"cityId":1,"commentTags":null,"cuisineStyle":"酒吧","discountDesc":null,"discountIconUrl":null,"distance":"","highLigth":"精致繁多的精酿啤酒  醇正比利时风情","hostName":"De Refter比利时啤酒吧","id":176145,"isHaveEquities":0,"isInterested":0,"isJoinRedPacket":0,"latitude":"39.9320748","linkUrl":"yhouse://host/176145?categoryId=2","logoUrl":"http://p.yhres.com/hostInfo/2017/09/29/1506689337724301.jpg-ssq75","longitude":"116.4568947","packageDesc":null,"packageIconUrl":null,"picUrl":"http://p.yhres.com/hostInfo/2017/09/29/1506692785250990.jpg-q75h","price":97,"priceStr":"人均: 97元","publicityWord":"","recommendDesc":null,"recommendSubHead":null,"recommendTitle":null,"specialty":null,"tagArr":[],"tagArrDesc":null,"title":"De Refter比利时啤酒吧","vipEqsTag":""},{"address":"北京市昌平区昌平镇松园路111号","businessesDistrict":"昌平镇","categoryId":2,"cityId":1,"commentTags":null,"cuisineStyle":"酒吧","discountDesc":null,"discountIconUrl":null,"distance":"","highLigth":"一个专注于精酿啤酒的地方","hostName":"悦味","id":210855,"isHaveEquities":0,"isInterested":0,"isJoinRedPacket":0,"latitude":"40.225948","linkUrl":"yhouse://host/210855?categoryId=2","logoUrl":"http://p.yhres.com/hostInfo/2017/09/29/1506686846225428.png-ssq75","longitude":"116.250974","packageDesc":null,"packageIconUrl":null,"picUrl":"http://p.yhres.com/hostInfo/2017/09/29/1506688016734553.png-q75h","price":78,"priceStr":"人均: 78元","publicityWord":"","recommendDesc":null,"recommendSubHead":null,"recommendTitle":null,"specialty":null,"tagArr":[],"tagArrDesc":null,"title":"悦味","vipEqsTag":""},{"address":"北京市大兴区BDA国际广场E座8层(中海尚旅酒店)","businessesDistrict":"亦庄","categoryId":2,"cityId":1,"commentTags":null,"cuisineStyle":"酒吧","discountDesc":null,"discountIconUrl":null,"distance":"","highLigth":"国家级调酒师技艺高超 调出不一般的酒","hostName":"Lion's club 莱恩棒球酒吧","id":210858,"isHaveEquities":0,"isInterested":0,"isJoinRedPacket":0,"latitude":"39.785714","linkUrl":"yhouse://host/210858?categoryId=2","logoUrl":"http://p.yhres.com/hostInfo/2017/09/29/1506684233046830.jpg-ssq75","longitude":"116.498721","packageDesc":null,"packageIconUrl":null,"picUrl":"http://p.yhres.com/hostInfo/2017/09/29/1506685909757784.jpg-q75h","price":50,"priceStr":"人均: 50元","publicityWord":"","recommendDesc":null,"recommendSubHead":null,"recommendTitle":null,"specialty":null,"tagArr":[],"tagArrDesc":null,"title":"Lion's club 莱恩棒球酒吧","vipEqsTag":""},{"address":"北京市1949机电所","businessesDistrict":"三里屯","categoryId":2,"cityId":1,"commentTags":null,"cuisineStyle":"酒吧","discountDesc":null,"discountIconUrl":null,"distance":"","highLigth":"机电院最接地气的美式酒吧","hostName":"The Local","id":67691,"isHaveEquities":0,"isInterested":0,"isJoinRedPacket":0,"latitude":"39.931584","linkUrl":"yhouse://host/67691?categoryId=2","logoUrl":"http://p.yhres.com/hostInfo/2017/09/29/1506681195395698.jpg-ssq75","longitude":"116.457208","packageDesc":null,"packageIconUrl":null,"picUrl":"http://p.yhres.com/hostInfo/2017/09/29/1506683150274682.jpg-q75h","price":117,"priceStr":"人均: 117元","publicityWord":"","recommendDesc":null,"recommendSubHead":null,"recommendTitle":null,"specialty":null,"tagArr":[],"tagArrDesc":null,"title":"The Local","vipEqsTag":""},{"address":"新华西街万达广场写字楼C座2717","businessesDistrict":"通州北苑","categoryId":2,"cityId":1,"commentTags":null,"cuisineStyle":"酒吧","discountDesc":null,"discountIconUrl":null,"distance":"","highLigth":"一杯酒也能是此刻的得意狂欢","hostName":"sistarz星空","id":87925,"isHaveEquities":0,"isInterested":0,"isJoinRedPacket":0,"latitude":"39.90606","linkUrl":"yhouse://host/87925?categoryId=2","logoUrl":"http://p.yhres.com/hostInfo/2017/09/29/1506679931336731.png-ssq75","longitude":"116.641766","packageDesc":null,"packageIconUrl":null,"picUrl":"http://p.yhres.com/hostInfo/2017/09/29/1506681631829762.png-q75h","price":108,"priceStr":"人均: 108元","publicityWord":"","recommendDesc":null,"recommendSubHead":null,"recommendTitle":null,"specialty":null,"tagArr":[],"tagArrDesc":null,"title":"sistarz星空","vipEqsTag":""},{"address":"联合大学向北200米","businessesDistrict":"昌平镇","categoryId":2,"cityId":1,"commentTags":null,"cuisineStyle":"酒吧","discountDesc":null,"discountIconUrl":null,"distance":"","highLigth":"没有酒吧台与高凳的小酒馆","hostName":"脏孩儿酒吧dirty children","id":210846,"isHaveEquities":0,"isInterested":0,"isJoinRedPacket":0,"latitude":"40.235651","linkUrl":"yhouse://host/210846?categoryId=2","logoUrl":"http://p.yhres.com/hostInfo/2017/09/29/1506660176412642.jpeg-ssq75","longitude":"116.218197","packageDesc":null,"packageIconUrl":null,"picUrl":"http://p.yhres.com/hostInfo/2017/09/29/1506660830659670.jpg-q75h","price":70,"priceStr":"人均: 70元","publicityWord":"","recommendDesc":null,"recommendSubHead":null,"recommendTitle":null,"specialty":null,"tagArr":[],"tagArrDesc":null,"title":"脏孩儿酒吧dirty children","vipEqsTag":""},{"address":"玉泉西里一区远洋沁山水上品26号楼西门底商","businessesDistrict":"青塔","categoryId":2,"cityId":1,"commentTags":null,"cuisineStyle":"酒吧","discountDesc":null,"discountIconUrl":null,"distance":"","highLigth":"用世界的名酒做了一面背景墙","hostName":"PORT ELLEN","id":210811,"isHaveEquities":0,"isInterested":0,"isJoinRedPacket":0,"latitude":"39.898078","linkUrl":"yhouse://host/210811?categoryId=2","logoUrl":"http://p.yhres.com/hostInfo/2017/09/28/1506588282622551.jpeg-ssq75","longitude":"116.249489","packageDesc":null,"packageIconUrl":null,"picUrl":"http://p.yhres.com/hostInfo/2017/09/28/1506588981468204.jpg-q75h","price":90,"priceStr":"人均: 90元","publicityWord":"","recommendDesc":null,"recommendSubHead":null,"recommendTitle":null,"specialty":null,"tagArr":[],"tagArrDesc":null,"title":"PORT ELLEN","vipEqsTag":""}],"itemLayout":3,"itemType":7}],"extraData":{"rocket":null,"hostSearchSchemeUrl":"yhouse://search?bizType=2&catalog=33&filter=33&cx=37&title=%e9%85%92%e5%90%a7%e7%ad%9b%e9%80%89&cityId=1"},"isEnd":0,"nextPage":4,"page":3,"pageSize":10,"pid":"61728,91407,210865,176145,210855,210858,67691,87925,210846,210811","totalRows":274},"detail":"","message":"success"}