{"code":"0","data":{"doc":[{"itemData":[{"id":42,"menuHref":"yhouse://search?bizType=2&filter=33&catalog=33&sort=2","menuIcon":"http://r.yhres.com/home/near@3x.png?v2","menuName":"附近"},{"id":41,"menuHref":"yhouse://search?bizType=2&filter=33&catalog=33&sort=4","menuIcon":"http://r.yhres.com/home/hot@3x.png?v2","menuName":"最热"},{"id":43,"menuHref":"yhouse://web?title=%E5%81%9A%E4%BB%BB%E5%8A%A1%20%E8%B5%9A%E7%BA%A2%E5%8C%85&url=my-purse-tasks-app&hideShortcut=1&refreshAfterLogin=1","menuIcon":"http://r.yhres.com/home/dailyBenefits.png","menuName":"任务红包"},{"id":5,"menuHref":"yhouse://invitation2","menuIcon":"http://r.yhres.com/home/invitationcard@3x.png","menuName":"电子请柬"}],"itemLayout":0,"itemType":40},{"iconUrl":"https://r.yhres.com/cityguide/cityhead@w82_h82.png","itemData":[{"userBehavior":"被3072人标记想去","dataType":4,"schemeUrl":"yhouse://web?title=%E5%9F%8E%E5%B8%82%E5%A4%B4%E6%9D%A1&url=hosts-activities-app%3Ftype%3D4%26pos%3Dnull%26cityId%3D1&hideShortcut=1","showPicSmallUrl":"http://p.yhres.com/host/2016/11/01/1477988641179423.jpg-ssq75","id":23939,"title":"同城人气好店","content":"霖舍"},{"userBehavior":"被3051人标记想去","dataType":4,"schemeUrl":"yhouse://web?title=%E5%9F%8E%E5%B8%82%E5%A4%B4%E6%9D%A1&url=hosts-activities-app%3Ftype%3D4%26pos%3Dnull%26cityId%3D1&hideShortcut=1","showPicSmallUrl":"http://p.yhres.com/hostInfo/2016/12/28/1482913320992696.jpg-ssq75","id":67114,"title":"同城人气好店","content":"ZooYoo佐佑(鼓楼店)"},{"userBehavior":"","dataType":1,"schemeUrl":"yhouse://share-topic/107","showPicSmallUrl":"http://f.yhres.com/topic/cover/2017/08/29/1504006515016376.jpg-ssq75","userName":"","userId":"","content":"去宫崎骏的童真世界"},{"userBehavior":"入驻了","createTime":1530633600000,"dataType":5,"schemeUrl":"yhouse://web?title=%E5%9F%8E%E5%B8%82%E5%A4%B4%E6%9D%A1&url=hosts-activities-app%3Ftype%3D5%26pos%3Dnull%26cityId%3D1&hideShortcut=1","showPicSmallUrl":"http://p.yhres.com/host/logo/chinese@3x.png-ssq75","id":28696,"title":"同城新店入驻","content":"北京金茂万丽酒店•万丽轩"},{"userBehavior":"入驻了","createTime":1530547200000,"dataType":5,"schemeUrl":"yhouse://web?title=%E5%9F%8E%E5%B8%82%E5%A4%B4%E6%9D%A1&url=hosts-activities-app%3Ftype%3D5%26pos%3Dnull%26cityId%3D1&hideShortcut=1","showPicSmallUrl":"http://p.yhres.com/hostInfo/2018/07/03/1530590072660707.jpg-ssq75","id":219704,"title":"同城新店入驻","content":"小龍行江湖老火锅"},{"userBehavior":"入驻了","createTime":1530547200000,"dataType":5,"schemeUrl":"yhouse://web?title=%E5%9F%8E%E5%B8%82%E5%A4%B4%E6%9D%A1&url=hosts-activities-app%3Ftype%3D5%26pos%3Dnull%26cityId%3D1&hideShortcut=1","showPicSmallUrl":"http://p.yhres.com/hostInfo/2018/07/03/1530590807702083.jpg-ssq75","id":219705,"title":"同城新店入驻","content":"布鲁餐厅（北京）"},{"userBehavior":"入驻了","createTime":1530547200000,"dataType":5,"schemeUrl":"yhouse://web?title=%E5%9F%8E%E5%B8%82%E5%A4%B4%E6%9D%A1&url=hosts-activities-app%3Ftype%3D5%26pos%3Dnull%26cityId%3D1&hideShortcut=1","showPicSmallUrl":"http://p.yhres.com/hostInfo/2018/07/03/1530591394782537.jpg-ssq75","id":219706,"title":"同城新店入驻","content":"壹树咖啡 coffee(牡丹园店)"},{"userBehavior":"入驻了","createTime":1530547200000,"dataType":5,"schemeUrl":"yhouse://web?title=%E5%9F%8E%E5%B8%82%E5%A4%B4%E6%9D%A1&url=hosts-activities-app%3Ftype%3D5%26pos%3Dnull%26cityId%3D1&hideShortcut=1","showPicSmallUrl":"http://p.yhres.com/hostInfo/2018/07/03/1530602045699494.jpg-ssq75","id":219707,"title":"同城新店入驻","content":"暖居和食料理"},{"userBehavior":"入驻了","createTime":1530547200000,"dataType":5,"schemeUrl":"yhouse://web?title=%E5%9F%8E%E5%B8%82%E5%A4%B4%E6%9D%A1&url=hosts-activities-app%3Ftype%3D5%26pos%3Dnull%26cityId%3D1&hideShortcut=1","showPicSmallUrl":"http://p.yhres.com/hostInfo/2018/07/03/1530602943158768.jpg-ssq75","id":219708,"title":"同城新店入驻","content":"鳗富士"},{"userBehavior":"入驻了","createTime":1530547200000,"dataType":5,"schemeUrl":"yhouse://web?title=%E5%9F%8E%E5%B8%82%E5%A4%B4%E6%9D%A1&url=hosts-activities-app%3Ftype%3D5%26pos%3Dnull%26cityId%3D1&hideShortcut=1","showPicSmallUrl":"http://p.yhres.com/hostInfo/2018/07/03/1530603747903592.jpg-ssq75","id":219709,"title":"同城新店入驻","content":"相扑烧肉"}],"itemLayout":1,"itemType":50},{"itemData":null,"itemLayout":2,"itemType":30},{"itemData":[{"address":"朝阳公园西里北区5号皇石国际公寓南大堂一层","businessesDistrict":"朝阳公园/团结湖","categoryId":2,"cityId":1,"commentTags":null,"cuisineStyle":"酒吧","discountDesc":null,"discountIconUrl":null,"distance":"","highLigth":"大落地玻璃窗露台 品醇正精酿啤酒","hostName":"FOAM LAB","id":201326,"isHaveEquities":0,"isInterested":0,"isJoinRedPacket":0,"latitude":"39.940374","linkUrl":"yhouse://host/201326?categoryId=2","logoUrl":"http://p.yhres.com/hostInfo/2017/08/29/1503978188710660.jpg-ssq75","longitude":"116.473274","packageDesc":null,"packageIconUrl":null,"picUrl":"http://p.yhres.com/hostInfo/2017/08/29/1503975210908965.jpg-q75h","price":130,"priceStr":"人均: 130元","publicityWord":"小编推荐","recommendDesc":null,"recommendSubHead":"猜你喜欢的人气好店","recommendTitle":"每日推荐","specialty":null,"tagArr":[],"tagArrDesc":null,"title":"FOAM LAB","vipEqsTag":""},{"address":"八里庄北里129号院10号楼1层10-7号","businessesDistrict":"石佛营","categoryId":2,"cityId":1,"commentTags":null,"cuisineStyle":"酒吧","discountDesc":null,"discountIconUrl":null,"distance":"","highLigth":"时光列车带你穿越回卓别林的摩登时代","hostName":"Chaplin Bar Kitchen","id":207771,"isHaveEquities":0,"isInterested":0,"isJoinRedPacket":0,"latitude":"39.929829","linkUrl":"yhouse://host/207771?categoryId=2","logoUrl":"http://p.yhres.com/hostInfo/2017/09/06/1504683643305930.jpg-ssq75","longitude":"116.501143","packageDesc":null,"packageIconUrl":null,"picUrl":"http://p.yhres.com/hostInfo/2017/09/06/1504686389201764.jpg-q75h","price":150,"priceStr":"人均: 150元","publicityWord":"小编推荐","recommendDesc":null,"recommendSubHead":null,"recommendTitle":null,"specialty":null,"tagArr":[],"tagArrDesc":null,"title":"Chaplin Bar Kitchen","vipEqsTag":""},{"address":"朝阳区 工体北路4号院22号楼东北角(1949)","businessesDistrict":"三里屯","categoryId":2,"cityId":1,"commentTags":null,"cuisineStyle":"酒吧","discountDesc":null,"discountIconUrl":null,"distance":"","highLigth":"白天可做中式茶室 晚上做Lounge","hostName":"LONG JING","id":23769,"isHaveEquities":0,"isInterested":0,"isJoinRedPacket":0,"latitude":"39.931662","linkUrl":"yhouse://host/23769?categoryId=2","logoUrl":"http://p.yhres.com/host/2016/11/01/1477984513135112.jpg-ssq75","longitude":"116.457087","packageDesc":null,"packageIconUrl":null,"picUrl":"http://p.yhres.com/hostInfo/2016/08/22/1471834449549595.jpg-q75h","price":96,"priceStr":"人均: 96元","publicityWord":"小编推荐","recommendDesc":null,"recommendSubHead":null,"recommendTitle":null,"specialty":null,"tagArr":[],"tagArrDesc":null,"title":"LONG JING","vipEqsTag":""},{"address":"工人体育场北路21号永利国际1单元1707","businessesDistrict":"三里屯","categoryId":2,"cityId":1,"commentTags":null,"cuisineStyle":"酒吧","discountDesc":null,"discountIconUrl":null,"distance":"","highLigth":"设计感十足的红酒与香槟私享根据地","hostName":"SHEUNG 上","id":202829,"isHaveEquities":0,"isInterested":0,"isJoinRedPacket":0,"latitude":"39.934714","linkUrl":"yhouse://host/202829?categoryId=2","logoUrl":"http://p.yhres.com/hostInfo/2017/07/25/1500914275596246.jpg-ssq75","longitude":"116.444705","packageDesc":null,"packageIconUrl":null,"picUrl":"http://p.yhres.com/hostInfo/2017/07/25/1500975114966866.png-q75h","price":100,"priceStr":"人均: 100元","publicityWord":"小编推荐","recommendDesc":null,"recommendSubHead":null,"recommendTitle":null,"specialty":null,"tagArr":[],"tagArrDesc":null,"title":"SHEUNG 上","vipEqsTag":""},{"address":"北京工体西路6号工体100B1楼","businessesDistrict":"工人体育场","categoryId":2,"cityId":1,"commentTags":null,"cuisineStyle":"酒吧","discountDesc":null,"discountIconUrl":null,"distance":"","highLigth":"最轻松最惬意最肆无忌惮的酒鬼天堂","hostName":"天堂超市(工体店)","id":200799,"isHaveEquities":0,"isInterested":0,"isJoinRedPacket":0,"latitude":"39.929346","linkUrl":"yhouse://host/200799?categoryId=2","logoUrl":"http://p.yhres.com/hostInfo/2017/07/11/1499763262203126.jpg-ssq75","longitude":"116.443922","packageDesc":null,"packageIconUrl":null,"picUrl":"http://p.yhres.com/hostInfo/2017/07/13/1499906022094338.jpg-q75h","price":103,"priceStr":"人均: 103元","publicityWord":"小编推荐","recommendDesc":null,"recommendSubHead":null,"recommendTitle":null,"specialty":null,"tagArr":[],"tagArrDesc":null,"title":"天堂超市(工体店)","vipEqsTag":""},{"address":"工人体育场北路永利国际1单元6楼620","businessesDistrict":"工人体育场","categoryId":2,"cityId":1,"commentTags":null,"cuisineStyle":"酒吧","discountDesc":null,"discountIconUrl":null,"distance":"","highLigth":"北京城不容错过的深夜酒吧","hostName":"畅饮室","id":201075,"isHaveEquities":0,"isInterested":0,"isJoinRedPacket":0,"latitude":"39.934714","linkUrl":"yhouse://host/201075?categoryId=2","logoUrl":"http://p.yhres.com/hostInfo/2017/07/13/1499925495557826.png-ssq75","longitude":"116.444705","packageDesc":null,"packageIconUrl":null,"picUrl":"http://p.yhres.com/hostInfo/2017/07/13/1499925495447264.jpg-q75h","price":98,"priceStr":"人均: 98元","publicityWord":"小编推荐","recommendDesc":null,"recommendSubHead":null,"recommendTitle":null,"specialty":null,"tagArr":[],"tagArrDesc":null,"title":"畅饮室","vipEqsTag":""},{"address":"新中街18号","businessesDistrict":"东直门","categoryId":2,"cityId":1,"commentTags":null,"cuisineStyle":"酒吧","discountDesc":null,"discountIconUrl":null,"distance":"","highLigth":"19世纪风格的卓别林主题酒吧","hostName":"Charlie Chaplin bar(卓别林春秀路店)","id":174961,"isHaveEquities":0,"isInterested":0,"isJoinRedPacket":0,"latitude":"39.936096","linkUrl":"yhouse://host/174961?categoryId=2","logoUrl":"http://p.yhres.com/hostInfo/2017/07/12/1499848507680072.jpg-ssq75","longitude":"116.440988","packageDesc":null,"packageIconUrl":null,"picUrl":"http://p.yhres.com/hostInfo/2017/07/12/1499848507463835.png-q75h","price":100,"priceStr":"人均: 100元","publicityWord":"小编推荐","recommendDesc":null,"recommendSubHead":null,"recommendTitle":null,"specialty":null,"tagArr":[],"tagArrDesc":null,"title":"Charlie Chaplin bar(卓别林春秀路店)","vipEqsTag":""},{"address":"将台路甲2号诺金酒店5楼(近14号线将台路地铁站)","businessesDistrict":"望京","categoryId":2,"cityId":1,"commentTags":null,"cuisineStyle":"酒吧","discountDesc":null,"discountIconUrl":null,"distance":"","highLigth":"拥有2200平米户外花园露台的酒吧","hostName":"欧吧 O'Bar","id":148975,"isHaveEquities":0,"isInterested":0,"isJoinRedPacket":0,"latitude":"39.976413","linkUrl":"yhouse://host/148975?categoryId=2","logoUrl":"http://p.yhres.com/hostInfo/2017/02/04/1486193299913400.jpg-ssq75","longitude":"116.480901","packageDesc":null,"packageIconUrl":null,"picUrl":"http://p.yhres.com/hostInfo/2017/02/04/1486193299781978.jpg-q75h","price":237,"priceStr":"人均: 237元","publicityWord":"小编推荐","recommendDesc":null,"recommendSubHead":null,"recommendTitle":null,"specialty":null,"tagArr":[],"tagArrDesc":null,"title":"欧吧 O'Bar","vipEqsTag":""},{"address":"广渠路36号院5号楼首城国际C座底商120室(招商银行北侧旁)","businessesDistrict":"双井","categoryId":2,"cityId":1,"commentTags":null,"cuisineStyle":"酒吧","discountDesc":null,"discountIconUrl":null,"distance":"","highLigth":"集酒吧下午茶于一体的优雅餐吧","hostName":"708麒麟吧·酒吧·下午茶(首城国际店)","id":219452,"isHaveEquities":1,"isInterested":0,"isJoinRedPacket":0,"latitude":"39.891859","linkUrl":"yhouse://host/219452?categoryId=2","logoUrl":"http://p.yhres.com/hostInfo/2018/04/28/1524888585325467.jpg-ssq75","longitude":"116.469486","packageDesc":null,"packageIconUrl":null,"picUrl":"http://p.yhres.com/hostInfo/2018/04/28/1524889097755754.jpg-q75h","price":66,"priceStr":"人均: 66元","publicityWord":"","recommendDesc":null,"recommendSubHead":null,"recommendTitle":null,"specialty":null,"tagArr":["会员"],"tagArrDesc":null,"title":"708麒麟吧·酒吧·下午茶(首城国际店)","vipEqsTag":"会员权益"},{"address":"新东路1号","businessesDistrict":"三里屯","categoryId":2,"cityId":1,"commentTags":null,"cuisineStyle":"酒吧","discountDesc":null,"discountIconUrl":null,"distance":"","highLigth":"头牌调酒师传递威士忌的魅力","hostName":"DRC WHISKY BAR","id":219099,"isHaveEquities":0,"isInterested":0,"isJoinRedPacket":0,"latitude":"39.943435","linkUrl":"yhouse://host/219099?categoryId=2","logoUrl":"http://p.yhres.com/hostInfo/2018/02/01/1517422825181853.jpg-ssq75","longitude":"116.449841","packageDesc":null,"packageIconUrl":null,"picUrl":"http://p.yhres.com/hostInfo/2018/02/01/1517422982171924.jpg-q75h","price":88,"priceStr":"人均: 88元","publicityWord":"","recommendDesc":null,"recommendSubHead":null,"recommendTitle":null,"specialty":null,"tagArr":[],"tagArrDesc":null,"title":"DRC WHISKY BAR","vipEqsTag":""}],"itemLayout":3,"itemType":7}],"extraData":{"rocket":{"reserveBanner":[],"reserveList":[{"adsName":"reserveList","actual":false,"position":1,"content":[{"actual":false,"xsort":1,"schemeUrl":"yhouse://topic/5329","pvUrl":null,"description":null,"title":"如何做个合格的雪莉酒大咖","linkName":"TOPIC","picUrl":"http://p.yhres.com/topic/2017/04/17/156762_1492419865214.jpg-q75","linkId":5329,"linkUrl":"/topic/5329","linkType":6,"id":0,"sPicUrl":"http://p.yhres.com/topic/2017/04/17/156762_1492419865214.jpg-ssq75"}]}]},"hostSearchSchemeUrl":"yhouse://search?bizType=2&catalog=33&filter=33&cx=37&title=%e9%85%92%e5%90%a7%e7%ad%9b%e9%80%89&cityId=1"},"isEnd":0,"nextPage":2,"page":1,"pageSize":10,"pid":"201326,207771,23769,202829,200799,201075,174961,148975,219452,219099","totalRows":274},"detail":"","message":"success"}