{"code":"0","data":{"doc":[{"itemData":[{"address":"鲁谷路台湾街","businessesDistrict":"鲁谷","categoryId":2,"cityId":1,"commentTags":null,"cuisineStyle":"酒吧","discountDesc":null,"discountIconUrl":null,"distance":"","highLigth":"将夜晚献给威士忌的一家酒吧","hostName":"威士忌酒吧","id":57134,"isHaveEquities":0,"isInterested":0,"isJoinRedPacket":0,"latitude":"39.904488592545","linkUrl":"yhouse://host/57134?categoryId=2","logoUrl":"http://p.yhres.com/hostInfo/2017/09/28/1506590371257905.jpg-ssq75","longitude":"116.23617356281","packageDesc":null,"packageIconUrl":null,"picUrl":"http://p.yhres.com/hostInfo/2017/09/28/1506591426608509.jpg-q75h","price":108,"priceStr":"人均: 108元","publicityWord":"","recommendDesc":null,"recommendSubHead":null,"recommendTitle":null,"specialty":null,"tagArr":[],"tagArrDesc":null,"title":"威士忌酒吧","vipEqsTag":""},{"address":"宋庄镇小堡村国防艺术区内","businessesDistrict":"宋庄","categoryId":2,"cityId":1,"commentTags":null,"cuisineStyle":"酒吧","discountDesc":null,"discountIconUrl":null,"distance":"","highLigth":"自产精酿啤酒 为你打开啤酒新世界","hostName":"沽酒小铺","id":210730,"isHaveEquities":0,"isInterested":0,"isJoinRedPacket":0,"latitude":"39.951678","linkUrl":"yhouse://host/210730?categoryId=2","logoUrl":"http://p.yhres.com/hostInfo/2017/09/27/1506482614890078.JPG-ssq75","longitude":"116.723549","packageDesc":null,"packageIconUrl":null,"picUrl":"http://p.yhres.com/hostInfo/2017/09/27/1506483681111916.jpg-q75h","price":63,"priceStr":"人均: 63元","publicityWord":"","recommendDesc":null,"recommendSubHead":null,"recommendTitle":null,"specialty":null,"tagArr":[],"tagArrDesc":null,"title":"沽酒小铺","vipEqsTag":""},{"address":"竹园街伟业嘉园北里北门向北200米","businessesDistrict":"良乡","categoryId":2,"cityId":1,"commentTags":null,"cuisineStyle":"酒吧","discountDesc":null,"discountIconUrl":null,"distance":"","highLigth":"帅哥老板自组乐队 给你惬意的音乐享受","hostName":"Partner Club","id":210777,"isHaveEquities":0,"isInterested":0,"isJoinRedPacket":0,"latitude":"39.734974","linkUrl":"yhouse://host/210777?categoryId=2","logoUrl":"http://p.yhres.com/hostInfo/2017/09/27/1506516199184476.jpg-ssq75","longitude":"116.159109","packageDesc":null,"packageIconUrl":null,"picUrl":"http://p.yhres.com/hostInfo/2017/09/27/1506520929829842.jpg-q75h","price":80,"priceStr":"人均: 80元","publicityWord":"","recommendDesc":null,"recommendSubHead":null,"recommendTitle":null,"specialty":null,"tagArr":[],"tagArrDesc":null,"title":"Partner Club","vipEqsTag":""},{"address":"黑山西街5号院11号楼103(东方爱婴楼下)","businessesDistrict":"门头沟区","categoryId":2,"cityId":1,"commentTags":null,"cuisineStyle":"酒吧","discountDesc":null,"discountIconUrl":null,"distance":"","highLigth":"都市里的音乐空间 抛却忧愁与烦恼","hostName":"3D·酒吧","id":210775,"isHaveEquities":0,"isInterested":0,"isJoinRedPacket":0,"latitude":"39.90539","linkUrl":"yhouse://host/210775?categoryId=2","logoUrl":"http://p.yhres.com/hostInfo/2017/09/27/1506515834355635.jpg-ssq75","longitude":"116.455229","packageDesc":null,"packageIconUrl":null,"picUrl":"http://p.yhres.com/hostInfo/2017/09/27/1506519314978051.jpg-q75h","price":80,"priceStr":"人均: 80元","publicityWord":"","recommendDesc":null,"recommendSubHead":null,"recommendTitle":null,"specialty":null,"tagArr":[],"tagArrDesc":null,"title":"3D·酒吧","vipEqsTag":""},{"address":"熙旺中心B座1009室","businessesDistrict":"门头沟区","categoryId":2,"cityId":1,"commentTags":null,"cuisineStyle":"酒吧","discountDesc":null,"discountIconUrl":null,"distance":"","highLigth":"自酿啤酒鸡尾酒 你想要的全都有","hostName":"run.捌零酒吧.bar","id":210774,"isHaveEquities":0,"isInterested":0,"isJoinRedPacket":0,"latitude":"39.93516","linkUrl":"yhouse://host/210774?categoryId=2","logoUrl":"http://p.yhres.com/hostInfo/2017/09/27/1506515571490637.jpg-ssq75","longitude":"116.11316","packageDesc":null,"packageIconUrl":null,"picUrl":"http://p.yhres.com/hostInfo/2017/09/27/1506517932380453.jpg-q75h","price":74,"priceStr":"人均: 74元","publicityWord":"","recommendDesc":null,"recommendSubHead":null,"recommendTitle":null,"specialty":null,"tagArr":[],"tagArrDesc":null,"title":"run.捌零酒吧.bar","vipEqsTag":""},{"address":"工体北路8号院三里屯SOHO5号商场2层211","businessesDistrict":"工人体育场","categoryId":2,"cityId":1,"commentTags":null,"cuisineStyle":"酒吧","discountDesc":null,"discountIconUrl":null,"distance":"","highLigth":"酒品到环境 透着浓浓日式酒吧风格","hostName":"Old Fashioned","id":210761,"isHaveEquities":0,"isInterested":0,"isJoinRedPacket":0,"latitude":"39.931285","linkUrl":"yhouse://host/210761?categoryId=2","logoUrl":"http://p.yhres.com/hostInfo/2017/09/27/1506506721607907.png-ssq75","longitude":"116.454392","packageDesc":null,"packageIconUrl":null,"picUrl":"http://p.yhres.com/hostInfo/2017/09/27/1506507955425656.jpg-q75h","price":207,"priceStr":"人均: 207元","publicityWord":"","recommendDesc":null,"recommendSubHead":null,"recommendTitle":null,"specialty":null,"tagArr":[],"tagArrDesc":null,"title":"Old Fashioned","vipEqsTag":""},{"address":"黑芝麻胡同5号","businessesDistrict":"南锣鼓巷/鼓楼东大街","categoryId":2,"cityId":1,"commentTags":null,"cuisineStyle":"酒吧","discountDesc":null,"discountIconUrl":null,"distance":"","highLigth":"南锣巷子里的一家中式小酒馆","hostName":"聊斋","id":210655,"isHaveEquities":0,"isInterested":0,"isJoinRedPacket":0,"latitude":"39.931782","linkUrl":"yhouse://host/210655?categoryId=2","logoUrl":"http://p.yhres.com/hostInfo/2017/09/25/1506353077318142.jpg-ssq75","longitude":"116.404678","packageDesc":null,"packageIconUrl":null,"picUrl":"http://p.yhres.com/hostInfo/2017/09/25/1506353172523473.jpg-q75h","price":77,"priceStr":"人均: 77元","publicityWord":"","recommendDesc":null,"recommendSubHead":null,"recommendTitle":null,"specialty":null,"tagArr":[],"tagArrDesc":null,"title":"聊斋","vipEqsTag":""},{"address":"大成国际公寓A座218","businessesDistrict":"百子湾","categoryId":2,"cityId":1,"commentTags":null,"cuisineStyle":"酒吧","discountDesc":null,"discountIconUrl":null,"distance":"","highLigth":"玩偶书籍陪你一起夜生活","hostName":"听澜·LTLAN","id":207109,"isHaveEquities":0,"isInterested":0,"isJoinRedPacket":0,"latitude":"39.89889","linkUrl":"yhouse://host/207109?categoryId=2","logoUrl":"http://p.yhres.com/hostInfo/2017/08/29/1504011037752996.jpg-ssq75","longitude":"116.492802","packageDesc":null,"packageIconUrl":null,"picUrl":"http://p.yhres.com/hostInfo/2017/08/29/1504011139687717.jpg-q75h","price":95,"priceStr":"人均: 95元","publicityWord":"","recommendDesc":null,"recommendSubHead":null,"recommendTitle":null,"specialty":null,"tagArr":[],"tagArrDesc":null,"title":"听澜·LTLAN","vipEqsTag":""},{"address":"北锣鼓巷胡同19号","businessesDistrict":"安定门","categoryId":2,"cityId":1,"commentTags":null,"cuisineStyle":"酒吧","discountDesc":null,"discountIconUrl":null,"distance":"","highLigth":"正宗英式风格 打造情调小资酒馆","hostName":"Dirty Duck英国酒馆","id":85426,"isHaveEquities":0,"isInterested":0,"isJoinRedPacket":0,"latitude":"39.946696","linkUrl":"yhouse://host/85426?categoryId=2","logoUrl":"http://p.yhres.com/hostInfo/2017/07/12/1499854038861180.png-ssq75","longitude":"116.402667","packageDesc":null,"packageIconUrl":null,"picUrl":"http://p.yhres.com/hostInfo/2017/07/12/1499854038653462.jpg-q75h","price":67,"priceStr":"人均: 67元","publicityWord":"","recommendDesc":null,"recommendSubHead":null,"recommendTitle":null,"specialty":null,"tagArr":[],"tagArrDesc":null,"title":"Dirty Duck英国酒馆","vipEqsTag":""},{"address":"鼓楼东大街206号院内B202","businessesDistrict":"安定门","categoryId":2,"cityId":1,"commentTags":null,"cuisineStyle":"酒吧","discountDesc":null,"discountIconUrl":null,"distance":"","highLigth":"在音乐里一起躁完整个夜晚","hostName":"Temple bar 坛酒吧","id":61754,"isHaveEquities":0,"isInterested":0,"isJoinRedPacket":0,"latitude":"39.940376","linkUrl":"yhouse://host/61754?categoryId=2","logoUrl":"http://p.yhres.com/hostInfo/2017/08/29/1504018574331052.jpg-ssq75","longitude":"116.399056","packageDesc":null,"packageIconUrl":null,"picUrl":"http://p.yhres.com/hostInfo/2017/08/29/1504019296959198.jpg-q75h","price":75,"priceStr":"人均: 75元","publicityWord":"","recommendDesc":null,"recommendSubHead":null,"recommendTitle":null,"specialty":null,"tagArr":[],"tagArrDesc":null,"title":"Temple bar 坛酒吧","vipEqsTag":""}],"itemLayout":3,"itemType":7}],"extraData":{"rocket":null,"hostSearchSchemeUrl":"yhouse://search?bizType=2&catalog=33&filter=33&cx=37&title=%e9%85%92%e5%90%a7%e7%ad%9b%e9%80%89&cityId=1"},"isEnd":0,"nextPage":5,"page":4,"pageSize":10,"pid":"57134,210730,210777,210775,210774,210761,210655,207109,85426,61754","totalRows":274},"detail":"","message":"success"}